{
    "records": [
        {
            "country_imageUrl": "https://gitlab.com/bitcodingsolutions/iptv_channels/-/raw/main/X_App/More_Urls/data_images/8Teen-boy.jpg",
            "country_name": "8Teen-b\u00d8y",
            "Links": "https://iptvfree-adultos001.blogspot.com",
            "SubLinks": [
                "https://gitlab.com/bitcodingsolutions/iptv_channels/-/raw/main/X_App/More_Urls/data_files/git_1.rutu",
                "https://gitlab.com/bitcodingsolutions/iptv_channels/-/raw/main/X_App/More_Urls/data_files/git_10.rutu",
                "https://gitlab.com/bitcodingsolutions/iptv_channels/-/raw/main/X_App/More_Urls/data_files/git_11.rutu",
                "https://gitlab.com/bitcodingsolutions/iptv_channels/-/raw/main/X_App/More_Urls/data_files/git_12.rutu",
                "https://gitlab.com/bitcodingsolutions/iptv_channels/-/raw/main/X_App/More_Urls/data_files/git_13.rutu",
                "https://gitlab.com/bitcodingsolutions/iptv_channels/-/raw/main/X_App/More_Urls/data_files/git_14.rutu",
                "https://gitlab.com/bitcodingsolutions/iptv_channels/-/raw/main/X_App/More_Urls/data_files/git_15.rutu",
                "https://gitlab.com/bitcodingsolutions/iptv_channels/-/raw/main/X_App/More_Urls/data_files/git_16.rutu",
                "https://gitlab.com/bitcodingsolutions/iptv_channels/-/raw/main/X_App/More_Urls/data_files/git_17.rutu",
                "https://gitlab.com/bitcodingsolutions/iptv_channels/-/raw/main/X_App/More_Urls/data_files/git_18.rutu",
                "https://gitlab.com/bitcodingsolutions/iptv_channels/-/raw/main/X_App/More_Urls/data_files/git_19.rutu",
                "https://gitlab.com/bitcodingsolutions/iptv_channels/-/raw/main/X_App/More_Urls/data_files/git_1_1.rutu",
                "https://gitlab.com/bitcodingsolutions/iptv_channels/-/raw/main/X_App/More_Urls/data_files/git_1_2.rutu",
                "https://gitlab.com/bitcodingsolutions/iptv_channels/-/raw/main/X_App/More_Urls/data_files/git_2.rutu",
                "https://gitlab.com/bitcodingsolutions/iptv_channels/-/raw/main/X_App/More_Urls/data_files/git_20.rutu",
                "https://gitlab.com/bitcodingsolutions/iptv_channels/-/raw/main/X_App/More_Urls/data_files/git_21.rutu"
            ]
        },
        {
            "country_imageUrl": "https://gitlab.com/bitcodingsolutions/iptv_channels/-/raw/main/X_App/More_Urls/data_images/BANG-BROS.jpg",
            "country_name": "BANG-BANG-BROS",
            "Links": "https://iptvfree-adultos001.blogspot.com",
            "SubLinks": [
                "https://gitlab.com/bitcodingsolutions/iptv_channels/-/raw/main/X_App/More_Urls/data_files/git_22.rutu",
                "https://gitlab.com/bitcodingsolutions/iptv_channels/-/raw/main/X_App/More_Urls/data_files/git_23.rutu",
                "https://gitlab.com/bitcodingsolutions/iptv_channels/-/raw/main/X_App/More_Urls/data_files/git_24.rutu",
                "https://gitlab.com/bitcodingsolutions/iptv_channels/-/raw/main/X_App/More_Urls/data_files/git_2_1.rutu",
                "https://gitlab.com/bitcodingsolutions/iptv_channels/-/raw/main/X_App/More_Urls/data_files/git_2_2.rutu",
                "https://gitlab.com/bitcodingsolutions/iptv_channels/-/raw/main/X_App/More_Urls/data_files/git_2_3.rutu",
                "https://gitlab.com/bitcodingsolutions/iptv_channels/-/raw/main/X_App/More_Urls/data_files/git_2_4.rutu",
                "https://gitlab.com/bitcodingsolutions/iptv_channels/-/raw/main/X_App/More_Urls/data_files/git_3.rutu",
                "https://gitlab.com/bitcodingsolutions/iptv_channels/-/raw/main/X_App/More_Urls/data_files/git_4.rutu",
                "https://gitlab.com/bitcodingsolutions/iptv_channels/-/raw/main/X_App/More_Urls/data_files/git_4_1.rutu",
                "https://gitlab.com/bitcodingsolutions/iptv_channels/-/raw/main/X_App/More_Urls/data_files/git_4_10.rutu",
                "https://gitlab.com/bitcodingsolutions/iptv_channels/-/raw/main/X_App/More_Urls/data_files/git_4_100.rutu",
                "https://gitlab.com/bitcodingsolutions/iptv_channels/-/raw/main/X_App/More_Urls/data_files/git_4_101.rutu",
                "https://gitlab.com/bitcodingsolutions/iptv_channels/-/raw/main/X_App/More_Urls/data_files/git_4_102.rutu",
                "https://gitlab.com/bitcodingsolutions/iptv_channels/-/raw/main/X_App/More_Urls/data_files/git_4_103.rutu",
                "https://gitlab.com/bitcodingsolutions/iptv_channels/-/raw/main/X_App/More_Urls/data_files/git_4_104.rutu"
            ]
        },
        {
            "country_imageUrl": "https://gitlab.com/bitcodingsolutions/iptv_channels/-/raw/main/X_App/More_Urls/data_images/BANG.jpg",
            "country_name": "BANGED",
            "Links": "https://iptvfree-adultos001.blogspot.com",
            "SubLinks": [
                "https://gitlab.com/bitcodingsolutions/iptv_channels/-/raw/main/X_App/More_Urls/data_files/git_4_105.rutu",
                "https://gitlab.com/bitcodingsolutions/iptv_channels/-/raw/main/X_App/More_Urls/data_files/git_4_106.rutu",
                "https://gitlab.com/bitcodingsolutions/iptv_channels/-/raw/main/X_App/More_Urls/data_files/git_4_107.rutu",
                "https://gitlab.com/bitcodingsolutions/iptv_channels/-/raw/main/X_App/More_Urls/data_files/git_4_108.rutu",
                "https://gitlab.com/bitcodingsolutions/iptv_channels/-/raw/main/X_App/More_Urls/data_files/git_4_109.rutu",
                "https://gitlab.com/bitcodingsolutions/iptv_channels/-/raw/main/X_App/More_Urls/data_files/git_4_11.rutu",
                "https://gitlab.com/bitcodingsolutions/iptv_channels/-/raw/main/X_App/More_Urls/data_files/git_4_110.rutu",
                "https://gitlab.com/bitcodingsolutions/iptv_channels/-/raw/main/X_App/More_Urls/data_files/git_4_111.rutu",
                "https://gitlab.com/bitcodingsolutions/iptv_channels/-/raw/main/X_App/More_Urls/data_files/git_4_112.rutu",
                "https://gitlab.com/bitcodingsolutions/iptv_channels/-/raw/main/X_App/More_Urls/data_files/git_4_113.rutu",
                "https://gitlab.com/bitcodingsolutions/iptv_channels/-/raw/main/X_App/More_Urls/data_files/git_4_114.rutu",
                "https://gitlab.com/bitcodingsolutions/iptv_channels/-/raw/main/X_App/More_Urls/data_files/git_4_115.rutu",
                "https://gitlab.com/bitcodingsolutions/iptv_channels/-/raw/main/X_App/More_Urls/data_files/git_4_116.rutu",
                "https://gitlab.com/bitcodingsolutions/iptv_channels/-/raw/main/X_App/More_Urls/data_files/git_4_117.rutu",
                "https://gitlab.com/bitcodingsolutions/iptv_channels/-/raw/main/X_App/More_Urls/data_files/git_4_118.rutu",
                "https://gitlab.com/bitcodingsolutions/iptv_channels/-/raw/main/X_App/More_Urls/data_files/git_4_119.rutu"
            ]
        },
        {
            "country_imageUrl": "https://gitlab.com/bitcodingsolutions/iptv_channels/-/raw/main/X_App/More_Urls/data_images/BLACKED.jpg",
            "country_name": "BLAKED",
            "Links": "https://iptvfree-adultos001.blogspot.com",
            "SubLinks": [
                "https://gitlab.com/bitcodingsolutions/iptv_channels/-/raw/main/X_App/More_Urls/data_files/git_4_12.rutu",
                "https://gitlab.com/bitcodingsolutions/iptv_channels/-/raw/main/X_App/More_Urls/data_files/git_4_120.rutu",
                "https://gitlab.com/bitcodingsolutions/iptv_channels/-/raw/main/X_App/More_Urls/data_files/git_4_121.rutu",
                "https://gitlab.com/bitcodingsolutions/iptv_channels/-/raw/main/X_App/More_Urls/data_files/git_4_122.rutu",
                "https://gitlab.com/bitcodingsolutions/iptv_channels/-/raw/main/X_App/More_Urls/data_files/git_4_123.rutu",
                "https://gitlab.com/bitcodingsolutions/iptv_channels/-/raw/main/X_App/More_Urls/data_files/git_4_124.rutu",
                "https://gitlab.com/bitcodingsolutions/iptv_channels/-/raw/main/X_App/More_Urls/data_files/git_4_125.rutu",
                "https://gitlab.com/bitcodingsolutions/iptv_channels/-/raw/main/X_App/More_Urls/data_files/git_4_126.rutu",
                "https://gitlab.com/bitcodingsolutions/iptv_channels/-/raw/main/X_App/More_Urls/data_files/git_4_127.rutu",
                "https://gitlab.com/bitcodingsolutions/iptv_channels/-/raw/main/X_App/More_Urls/data_files/git_4_128.rutu",
                "https://gitlab.com/bitcodingsolutions/iptv_channels/-/raw/main/X_App/More_Urls/data_files/git_4_129.rutu",
                "https://gitlab.com/bitcodingsolutions/iptv_channels/-/raw/main/X_App/More_Urls/data_files/git_4_13.rutu",
                "https://gitlab.com/bitcodingsolutions/iptv_channels/-/raw/main/X_App/More_Urls/data_files/git_4_130.rutu",
                "https://gitlab.com/bitcodingsolutions/iptv_channels/-/raw/main/X_App/More_Urls/data_files/git_4_131.rutu",
                "https://gitlab.com/bitcodingsolutions/iptv_channels/-/raw/main/X_App/More_Urls/data_files/git_4_132.rutu",
                "https://gitlab.com/bitcodingsolutions/iptv_channels/-/raw/main/X_App/More_Urls/data_files/git_4_133.rutu"
            ]
        },
        {
            "country_imageUrl": "https://gitlab.com/bitcodingsolutions/iptv_channels/-/raw/main/X_App/More_Urls/data_images/BlueBird.jpg",
            "country_name": "Blue-B!rd",
            "Links": "https://iptvfree-adultos001.blogspot.com",
            "SubLinks": [
                "https://gitlab.com/bitcodingsolutions/iptv_channels/-/raw/main/X_App/More_Urls/data_files/git_4_134.rutu",
                "https://gitlab.com/bitcodingsolutions/iptv_channels/-/raw/main/X_App/More_Urls/data_files/git_4_135.rutu",
                "https://gitlab.com/bitcodingsolutions/iptv_channels/-/raw/main/X_App/More_Urls/data_files/git_4_136.rutu",
                "https://gitlab.com/bitcodingsolutions/iptv_channels/-/raw/main/X_App/More_Urls/data_files/git_4_137.rutu",
                "https://gitlab.com/bitcodingsolutions/iptv_channels/-/raw/main/X_App/More_Urls/data_files/git_4_138.rutu",
                "https://gitlab.com/bitcodingsolutions/iptv_channels/-/raw/main/X_App/More_Urls/data_files/git_4_139.rutu",
                "https://gitlab.com/bitcodingsolutions/iptv_channels/-/raw/main/X_App/More_Urls/data_files/git_4_14.rutu",
                "https://gitlab.com/bitcodingsolutions/iptv_channels/-/raw/main/X_App/More_Urls/data_files/git_4_140.rutu",
                "https://gitlab.com/bitcodingsolutions/iptv_channels/-/raw/main/X_App/More_Urls/data_files/git_4_141.rutu",
                "https://gitlab.com/bitcodingsolutions/iptv_channels/-/raw/main/X_App/More_Urls/data_files/git_4_142.rutu",
                "https://gitlab.com/bitcodingsolutions/iptv_channels/-/raw/main/X_App/More_Urls/data_files/git_4_143.rutu",
                "https://gitlab.com/bitcodingsolutions/iptv_channels/-/raw/main/X_App/More_Urls/data_files/git_4_144.rutu",
                "https://gitlab.com/bitcodingsolutions/iptv_channels/-/raw/main/X_App/More_Urls/data_files/git_4_145.rutu",
                "https://gitlab.com/bitcodingsolutions/iptv_channels/-/raw/main/X_App/More_Urls/data_files/git_4_146.rutu",
                "https://gitlab.com/bitcodingsolutions/iptv_channels/-/raw/main/X_App/More_Urls/data_files/git_4_147.rutu",
                "https://gitlab.com/bitcodingsolutions/iptv_channels/-/raw/main/X_App/More_Urls/data_files/git_4_148.rutu"
            ]
        },
        {
            "country_imageUrl": "https://gitlab.com/bitcodingsolutions/iptv_channels/-/raw/main/X_App/More_Urls/data_images/BRAZZERS.jpg",
            "country_name": "BRAZZEERS",
            "Links": "https://iptvfree-adultos001.blogspot.com",
            "SubLinks": [
                "https://gitlab.com/bitcodingsolutions/iptv_channels/-/raw/main/X_App/More_Urls/data_files/git_4_149.rutu",
                "https://gitlab.com/bitcodingsolutions/iptv_channels/-/raw/main/X_App/More_Urls/data_files/git_4_15.rutu",
                "https://gitlab.com/bitcodingsolutions/iptv_channels/-/raw/main/X_App/More_Urls/data_files/git_4_150.rutu",
                "https://gitlab.com/bitcodingsolutions/iptv_channels/-/raw/main/X_App/More_Urls/data_files/git_4_151.rutu",
                "https://gitlab.com/bitcodingsolutions/iptv_channels/-/raw/main/X_App/More_Urls/data_files/git_4_152.rutu",
                "https://gitlab.com/bitcodingsolutions/iptv_channels/-/raw/main/X_App/More_Urls/data_files/git_4_153.rutu",
                "https://gitlab.com/bitcodingsolutions/iptv_channels/-/raw/main/X_App/More_Urls/data_files/git_4_154.rutu",
                "https://gitlab.com/bitcodingsolutions/iptv_channels/-/raw/main/X_App/More_Urls/data_files/git_4_155.rutu",
                "https://gitlab.com/bitcodingsolutions/iptv_channels/-/raw/main/X_App/More_Urls/data_files/git_4_156.rutu",
                "https://gitlab.com/bitcodingsolutions/iptv_channels/-/raw/main/X_App/More_Urls/data_files/git_4_157.rutu",
                "https://gitlab.com/bitcodingsolutions/iptv_channels/-/raw/main/X_App/More_Urls/data_files/git_4_158.rutu",
                "https://gitlab.com/bitcodingsolutions/iptv_channels/-/raw/main/X_App/More_Urls/data_files/git_4_159.rutu",
                "https://gitlab.com/bitcodingsolutions/iptv_channels/-/raw/main/X_App/More_Urls/data_files/git_4_16.rutu",
                "https://gitlab.com/bitcodingsolutions/iptv_channels/-/raw/main/X_App/More_Urls/data_files/git_4_160.rutu",
                "https://gitlab.com/bitcodingsolutions/iptv_channels/-/raw/main/X_App/More_Urls/data_files/git_4_161.rutu",
                "https://gitlab.com/bitcodingsolutions/iptv_channels/-/raw/main/X_App/More_Urls/data_files/git_4_162.rutu"
            ]
        },
        {
            "country_imageUrl": "https://gitlab.com/bitcodingsolutions/iptv_channels/-/raw/main/X_App/More_Urls/data_images/BurningAngel.jpg",
            "country_name": "Burn!ng-Angel",
            "Links": "https://iptvfree-adultos001.blogspot.com",
            "SubLinks": [
                "https://gitlab.com/bitcodingsolutions/iptv_channels/-/raw/main/X_App/More_Urls/data_files/git_4_163.rutu",
                "https://gitlab.com/bitcodingsolutions/iptv_channels/-/raw/main/X_App/More_Urls/data_files/git_4_164.rutu",
                "https://gitlab.com/bitcodingsolutions/iptv_channels/-/raw/main/X_App/More_Urls/data_files/git_4_165.rutu",
                "https://gitlab.com/bitcodingsolutions/iptv_channels/-/raw/main/X_App/More_Urls/data_files/git_4_166.rutu",
                "https://gitlab.com/bitcodingsolutions/iptv_channels/-/raw/main/X_App/More_Urls/data_files/git_4_167.rutu",
                "https://gitlab.com/bitcodingsolutions/iptv_channels/-/raw/main/X_App/More_Urls/data_files/git_4_168.rutu",
                "https://gitlab.com/bitcodingsolutions/iptv_channels/-/raw/main/X_App/More_Urls/data_files/git_4_169.rutu",
                "https://gitlab.com/bitcodingsolutions/iptv_channels/-/raw/main/X_App/More_Urls/data_files/git_4_17.rutu",
                "https://gitlab.com/bitcodingsolutions/iptv_channels/-/raw/main/X_App/More_Urls/data_files/git_4_170.rutu",
                "https://gitlab.com/bitcodingsolutions/iptv_channels/-/raw/main/X_App/More_Urls/data_files/git_4_171.rutu",
                "https://gitlab.com/bitcodingsolutions/iptv_channels/-/raw/main/X_App/More_Urls/data_files/git_4_172.rutu",
                "https://gitlab.com/bitcodingsolutions/iptv_channels/-/raw/main/X_App/More_Urls/data_files/git_4_173.rutu",
                "https://gitlab.com/bitcodingsolutions/iptv_channels/-/raw/main/X_App/More_Urls/data_files/git_4_174.rutu",
                "https://gitlab.com/bitcodingsolutions/iptv_channels/-/raw/main/X_App/More_Urls/data_files/git_4_175.rutu",
                "https://gitlab.com/bitcodingsolutions/iptv_channels/-/raw/main/X_App/More_Urls/data_files/git_4_176.rutu",
                "https://gitlab.com/bitcodingsolutions/iptv_channels/-/raw/main/X_App/More_Urls/data_files/git_4_177.rutu"
            ]
        },
        {
            "country_imageUrl": "https://gitlab.com/bitcodingsolutions/iptv_channels/-/raw/main/X_App/More_Urls/data_images/FakeTaxi.jpg",
            "country_name": "Fake-Tax!",
            "Links": "https://iptvfree-adultos001.blogspot.com",
            "SubLinks": [
                "https://gitlab.com/bitcodingsolutions/iptv_channels/-/raw/main/X_App/More_Urls/data_files/git_4_178.rutu",
                "https://gitlab.com/bitcodingsolutions/iptv_channels/-/raw/main/X_App/More_Urls/data_files/git_4_179.rutu",
                "https://gitlab.com/bitcodingsolutions/iptv_channels/-/raw/main/X_App/More_Urls/data_files/git_4_18.rutu",
                "https://gitlab.com/bitcodingsolutions/iptv_channels/-/raw/main/X_App/More_Urls/data_files/git_4_180.rutu",
                "https://gitlab.com/bitcodingsolutions/iptv_channels/-/raw/main/X_App/More_Urls/data_files/git_4_181.rutu",
                "https://gitlab.com/bitcodingsolutions/iptv_channels/-/raw/main/X_App/More_Urls/data_files/git_4_182.rutu",
                "https://gitlab.com/bitcodingsolutions/iptv_channels/-/raw/main/X_App/More_Urls/data_files/git_4_183.rutu",
                "https://gitlab.com/bitcodingsolutions/iptv_channels/-/raw/main/X_App/More_Urls/data_files/git_4_184.rutu",
                "https://gitlab.com/bitcodingsolutions/iptv_channels/-/raw/main/X_App/More_Urls/data_files/git_4_185.rutu",
                "https://gitlab.com/bitcodingsolutions/iptv_channels/-/raw/main/X_App/More_Urls/data_files/git_4_186.rutu",
                "https://gitlab.com/bitcodingsolutions/iptv_channels/-/raw/main/X_App/More_Urls/data_files/git_4_187.rutu",
                "https://gitlab.com/bitcodingsolutions/iptv_channels/-/raw/main/X_App/More_Urls/data_files/git_4_188.rutu",
                "https://gitlab.com/bitcodingsolutions/iptv_channels/-/raw/main/X_App/More_Urls/data_files/git_4_189.rutu",
                "https://gitlab.com/bitcodingsolutions/iptv_channels/-/raw/main/X_App/More_Urls/data_files/git_4_19.rutu",
                "https://gitlab.com/bitcodingsolutions/iptv_channels/-/raw/main/X_App/More_Urls/data_files/git_4_190.rutu",
                "https://gitlab.com/bitcodingsolutions/iptv_channels/-/raw/main/X_App/More_Urls/data_files/git_4_191.rutu"
            ]
        },
        {
            "country_imageUrl": "https://gitlab.com/bitcodingsolutions/iptv_channels/-/raw/main/X_App/More_Urls/data_images/Joulizz.jpg",
            "country_name": "J\u00d8ul!zz",
            "Links": "https://iptvfree-adultos001.blogspot.com",
            "SubLinks": [
                "https://gitlab.com/bitcodingsolutions/iptv_channels/-/raw/main/X_App/More_Urls/data_files/git_4_192.rutu",
                "https://gitlab.com/bitcodingsolutions/iptv_channels/-/raw/main/X_App/More_Urls/data_files/git_4_193.rutu",
                "https://gitlab.com/bitcodingsolutions/iptv_channels/-/raw/main/X_App/More_Urls/data_files/git_4_194.rutu",
                "https://gitlab.com/bitcodingsolutions/iptv_channels/-/raw/main/X_App/More_Urls/data_files/git_4_195.rutu",
                "https://gitlab.com/bitcodingsolutions/iptv_channels/-/raw/main/X_App/More_Urls/data_files/git_4_196.rutu",
                "https://gitlab.com/bitcodingsolutions/iptv_channels/-/raw/main/X_App/More_Urls/data_files/git_4_197.rutu",
                "https://gitlab.com/bitcodingsolutions/iptv_channels/-/raw/main/X_App/More_Urls/data_files/git_4_198.rutu",
                "https://gitlab.com/bitcodingsolutions/iptv_channels/-/raw/main/X_App/More_Urls/data_files/git_4_199.rutu",
                "https://gitlab.com/bitcodingsolutions/iptv_channels/-/raw/main/X_App/More_Urls/data_files/git_4_2.rutu",
                "https://gitlab.com/bitcodingsolutions/iptv_channels/-/raw/main/X_App/More_Urls/data_files/git_4_20.rutu",
                "https://gitlab.com/bitcodingsolutions/iptv_channels/-/raw/main/X_App/More_Urls/data_files/git_4_200.rutu",
                "https://gitlab.com/bitcodingsolutions/iptv_channels/-/raw/main/X_App/More_Urls/data_files/git_4_201.rutu",
                "https://gitlab.com/bitcodingsolutions/iptv_channels/-/raw/main/X_App/More_Urls/data_files/git_4_202.rutu",
                "https://gitlab.com/bitcodingsolutions/iptv_channels/-/raw/main/X_App/More_Urls/data_files/git_4_203.rutu",
                "https://gitlab.com/bitcodingsolutions/iptv_channels/-/raw/main/X_App/More_Urls/data_files/git_4_204.rutu",
                "https://gitlab.com/bitcodingsolutions/iptv_channels/-/raw/main/X_App/More_Urls/data_files/git_4_205.rutu"
            ]
        },
        {
            "country_imageUrl": "https://gitlab.com/bitcodingsolutions/iptv_channels/-/raw/main/X_App/More_Urls/data_images/Porn.jpg",
            "country_name": "P\u00d8rn",
            "Links": "https://iptvfree-adultos001.blogspot.com",
            "SubLinks": [
                "https://gitlab.com/bitcodingsolutions/iptv_channels/-/raw/main/X_App/More_Urls/data_files/git_4_206.rutu",
                "https://gitlab.com/bitcodingsolutions/iptv_channels/-/raw/main/X_App/More_Urls/data_files/git_4_207.rutu",
                "https://gitlab.com/bitcodingsolutions/iptv_channels/-/raw/main/X_App/More_Urls/data_files/git_4_208.rutu",
                "https://gitlab.com/bitcodingsolutions/iptv_channels/-/raw/main/X_App/More_Urls/data_files/git_4_209.rutu",
                "https://gitlab.com/bitcodingsolutions/iptv_channels/-/raw/main/X_App/More_Urls/data_files/git_4_21.rutu",
                "https://gitlab.com/bitcodingsolutions/iptv_channels/-/raw/main/X_App/More_Urls/data_files/git_4_210.rutu",
                "https://gitlab.com/bitcodingsolutions/iptv_channels/-/raw/main/X_App/More_Urls/data_files/git_4_211.rutu",
                "https://gitlab.com/bitcodingsolutions/iptv_channels/-/raw/main/X_App/More_Urls/data_files/git_4_212.rutu",
                "https://gitlab.com/bitcodingsolutions/iptv_channels/-/raw/main/X_App/More_Urls/data_files/git_4_213.rutu",
                "https://gitlab.com/bitcodingsolutions/iptv_channels/-/raw/main/X_App/More_Urls/data_files/git_4_214.rutu",
                "https://gitlab.com/bitcodingsolutions/iptv_channels/-/raw/main/X_App/More_Urls/data_files/git_4_215.rutu",
                "https://gitlab.com/bitcodingsolutions/iptv_channels/-/raw/main/X_App/More_Urls/data_files/git_4_216.rutu",
                "https://gitlab.com/bitcodingsolutions/iptv_channels/-/raw/main/X_App/More_Urls/data_files/git_4_217.rutu",
                "https://gitlab.com/bitcodingsolutions/iptv_channels/-/raw/main/X_App/More_Urls/data_files/git_4_218.rutu",
                "https://gitlab.com/bitcodingsolutions/iptv_channels/-/raw/main/X_App/More_Urls/data_files/git_4_219.rutu",
                "https://gitlab.com/bitcodingsolutions/iptv_channels/-/raw/main/X_App/More_Urls/data_files/git_4_22.rutu"
            ]
        },
        {
            "country_imageUrl": "https://gitlab.com/bitcodingsolutions/iptv_channels/-/raw/main/X_App/More_Urls/data_images/PornHD.jpg",
            "country_name": "P\u00d8rnHD",
            "Links": "https://iptvfree-adultos001.blogspot.com",
            "SubLinks": [
                "https://gitlab.com/bitcodingsolutions/iptv_channels/-/raw/main/X_App/More_Urls/data_files/git_4_220.rutu",
                "https://gitlab.com/bitcodingsolutions/iptv_channels/-/raw/main/X_App/More_Urls/data_files/git_4_221.rutu",
                "https://gitlab.com/bitcodingsolutions/iptv_channels/-/raw/main/X_App/More_Urls/data_files/git_4_222.rutu",
                "https://gitlab.com/bitcodingsolutions/iptv_channels/-/raw/main/X_App/More_Urls/data_files/git_4_223.rutu",
                "https://gitlab.com/bitcodingsolutions/iptv_channels/-/raw/main/X_App/More_Urls/data_files/git_4_224.rutu",
                "https://gitlab.com/bitcodingsolutions/iptv_channels/-/raw/main/X_App/More_Urls/data_files/git_4_225.rutu",
                "https://gitlab.com/bitcodingsolutions/iptv_channels/-/raw/main/X_App/More_Urls/data_files/git_4_226.rutu",
                "https://gitlab.com/bitcodingsolutions/iptv_channels/-/raw/main/X_App/More_Urls/data_files/git_4_227.rutu",
                "https://gitlab.com/bitcodingsolutions/iptv_channels/-/raw/main/X_App/More_Urls/data_files/git_4_228.rutu",
                "https://gitlab.com/bitcodingsolutions/iptv_channels/-/raw/main/X_App/More_Urls/data_files/git_4_229.rutu",
                "https://gitlab.com/bitcodingsolutions/iptv_channels/-/raw/main/X_App/More_Urls/data_files/git_4_23.rutu",
                "https://gitlab.com/bitcodingsolutions/iptv_channels/-/raw/main/X_App/More_Urls/data_files/git_4_230.rutu",
                "https://gitlab.com/bitcodingsolutions/iptv_channels/-/raw/main/X_App/More_Urls/data_files/git_4_231.rutu",
                "https://gitlab.com/bitcodingsolutions/iptv_channels/-/raw/main/X_App/More_Urls/data_files/git_4_232.rutu",
                "https://gitlab.com/bitcodingsolutions/iptv_channels/-/raw/main/X_App/More_Urls/data_files/git_4_233.rutu",
                "https://gitlab.com/bitcodingsolutions/iptv_channels/-/raw/main/X_App/More_Urls/data_files/git_4_234.rutu"
            ]
        },
        {
            "country_imageUrl": "https://gitlab.com/bitcodingsolutions/iptv_channels/-/raw/main/X_App/More_Urls/data_images/Pornhub.jpg",
            "country_name": "P\u00d8rnhub",
            "Links": "https://iptvfree-adultos001.blogspot.com",
            "SubLinks": [
                "https://gitlab.com/bitcodingsolutions/iptv_channels/-/raw/main/X_App/More_Urls/data_files/git_4_235.rutu",
                "https://gitlab.com/bitcodingsolutions/iptv_channels/-/raw/main/X_App/More_Urls/data_files/git_4_236.rutu",
                "https://gitlab.com/bitcodingsolutions/iptv_channels/-/raw/main/X_App/More_Urls/data_files/git_4_237.rutu",
                "https://gitlab.com/bitcodingsolutions/iptv_channels/-/raw/main/X_App/More_Urls/data_files/git_4_238.rutu",
                "https://gitlab.com/bitcodingsolutions/iptv_channels/-/raw/main/X_App/More_Urls/data_files/git_4_239.rutu",
                "https://gitlab.com/bitcodingsolutions/iptv_channels/-/raw/main/X_App/More_Urls/data_files/git_4_24.rutu",
                "https://gitlab.com/bitcodingsolutions/iptv_channels/-/raw/main/X_App/More_Urls/data_files/git_4_240.rutu",
                "https://gitlab.com/bitcodingsolutions/iptv_channels/-/raw/main/X_App/More_Urls/data_files/git_4_241.rutu",
                "https://gitlab.com/bitcodingsolutions/iptv_channels/-/raw/main/X_App/More_Urls/data_files/git_4_242.rutu",
                "https://gitlab.com/bitcodingsolutions/iptv_channels/-/raw/main/X_App/More_Urls/data_files/git_4_243.rutu",
                "https://gitlab.com/bitcodingsolutions/iptv_channels/-/raw/main/X_App/More_Urls/data_files/git_4_244.rutu",
                "https://gitlab.com/bitcodingsolutions/iptv_channels/-/raw/main/X_App/More_Urls/data_files/git_4_245.rutu",
                "https://gitlab.com/bitcodingsolutions/iptv_channels/-/raw/main/X_App/More_Urls/data_files/git_4_246.rutu",
                "https://gitlab.com/bitcodingsolutions/iptv_channels/-/raw/main/X_App/More_Urls/data_files/git_4_247.rutu",
                "https://gitlab.com/bitcodingsolutions/iptv_channels/-/raw/main/X_App/More_Urls/data_files/git_4_248.rutu",
                "https://gitlab.com/bitcodingsolutions/iptv_channels/-/raw/main/X_App/More_Urls/data_files/git_4_249.rutu"
            ]
        },
        {
            "country_imageUrl": "https://gitlab.com/bitcodingsolutions/iptv_channels/-/raw/main/X_App/More_Urls/data_images/PornTube.jpg",
            "country_name": "P\u00d8rnTube",
            "Links": "https://iptvfree-adultos001.blogspot.com",
            "SubLinks": [
                "https://gitlab.com/bitcodingsolutions/iptv_channels/-/raw/main/X_App/More_Urls/data_files/git_4_25.rutu",
                "https://gitlab.com/bitcodingsolutions/iptv_channels/-/raw/main/X_App/More_Urls/data_files/git_4_250.rutu",
                "https://gitlab.com/bitcodingsolutions/iptv_channels/-/raw/main/X_App/More_Urls/data_files/git_4_251.rutu",
                "https://gitlab.com/bitcodingsolutions/iptv_channels/-/raw/main/X_App/More_Urls/data_files/git_4_252.rutu",
                "https://gitlab.com/bitcodingsolutions/iptv_channels/-/raw/main/X_App/More_Urls/data_files/git_4_253.rutu",
                "https://gitlab.com/bitcodingsolutions/iptv_channels/-/raw/main/X_App/More_Urls/data_files/git_4_254.rutu",
                "https://gitlab.com/bitcodingsolutions/iptv_channels/-/raw/main/X_App/More_Urls/data_files/git_4_255.rutu",
                "https://gitlab.com/bitcodingsolutions/iptv_channels/-/raw/main/X_App/More_Urls/data_files/git_4_256.rutu",
                "https://gitlab.com/bitcodingsolutions/iptv_channels/-/raw/main/X_App/More_Urls/data_files/git_4_257.rutu",
                "https://gitlab.com/bitcodingsolutions/iptv_channels/-/raw/main/X_App/More_Urls/data_files/git_4_258.rutu",
                "https://gitlab.com/bitcodingsolutions/iptv_channels/-/raw/main/X_App/More_Urls/data_files/git_4_259.rutu",
                "https://gitlab.com/bitcodingsolutions/iptv_channels/-/raw/main/X_App/More_Urls/data_files/git_4_26.rutu",
                "https://gitlab.com/bitcodingsolutions/iptv_channels/-/raw/main/X_App/More_Urls/data_files/git_4_260.rutu",
                "https://gitlab.com/bitcodingsolutions/iptv_channels/-/raw/main/X_App/More_Urls/data_files/git_4_261.rutu",
                "https://gitlab.com/bitcodingsolutions/iptv_channels/-/raw/main/X_App/More_Urls/data_files/git_4_262.rutu",
                "https://gitlab.com/bitcodingsolutions/iptv_channels/-/raw/main/X_App/More_Urls/data_files/git_4_263.rutu"
            ]
        },
        {
            "country_imageUrl": "https://gitlab.com/bitcodingsolutions/iptv_channels/-/raw/main/X_App/More_Urls/data_images/REDTUBE.jpg",
            "country_name": "REED-TUBE",
            "Links": "https://iptvfree-adultos001.blogspot.com",
            "SubLinks": [
                "https://gitlab.com/bitcodingsolutions/iptv_channels/-/raw/main/X_App/More_Urls/data_files/git_4_264.rutu",
                "https://gitlab.com/bitcodingsolutions/iptv_channels/-/raw/main/X_App/More_Urls/data_files/git_4_265.rutu",
                "https://gitlab.com/bitcodingsolutions/iptv_channels/-/raw/main/X_App/More_Urls/data_files/git_4_266.rutu",
                "https://gitlab.com/bitcodingsolutions/iptv_channels/-/raw/main/X_App/More_Urls/data_files/git_4_267.rutu",
                "https://gitlab.com/bitcodingsolutions/iptv_channels/-/raw/main/X_App/More_Urls/data_files/git_4_268.rutu",
                "https://gitlab.com/bitcodingsolutions/iptv_channels/-/raw/main/X_App/More_Urls/data_files/git_4_269.rutu",
                "https://gitlab.com/bitcodingsolutions/iptv_channels/-/raw/main/X_App/More_Urls/data_files/git_4_27.rutu",
                "https://gitlab.com/bitcodingsolutions/iptv_channels/-/raw/main/X_App/More_Urls/data_files/git_4_270.rutu",
                "https://gitlab.com/bitcodingsolutions/iptv_channels/-/raw/main/X_App/More_Urls/data_files/git_4_271.rutu",
                "https://gitlab.com/bitcodingsolutions/iptv_channels/-/raw/main/X_App/More_Urls/data_files/git_4_272.rutu",
                "https://gitlab.com/bitcodingsolutions/iptv_channels/-/raw/main/X_App/More_Urls/data_files/git_4_273.rutu",
                "https://gitlab.com/bitcodingsolutions/iptv_channels/-/raw/main/X_App/More_Urls/data_files/git_4_274.rutu",
                "https://gitlab.com/bitcodingsolutions/iptv_channels/-/raw/main/X_App/More_Urls/data_files/git_4_275.rutu",
                "https://gitlab.com/bitcodingsolutions/iptv_channels/-/raw/main/X_App/More_Urls/data_files/git_4_276.rutu",
                "https://gitlab.com/bitcodingsolutions/iptv_channels/-/raw/main/X_App/More_Urls/data_files/git_4_277.rutu",
                "https://gitlab.com/bitcodingsolutions/iptv_channels/-/raw/main/X_App/More_Urls/data_files/git_4_278.rutu"
            ]
        },
        {
            "country_imageUrl": "https://gitlab.com/bitcodingsolutions/iptv_channels/-/raw/main/X_App/More_Urls/data_images/TUBE8.jpg",
            "country_name": "TUBE-8",
            "Links": "https://iptvfree-adultos001.blogspot.com",
            "SubLinks": [
                "https://gitlab.com/bitcodingsolutions/iptv_channels/-/raw/main/X_App/More_Urls/data_files/git_4_279.rutu",
                "https://gitlab.com/bitcodingsolutions/iptv_channels/-/raw/main/X_App/More_Urls/data_files/git_4_28.rutu",
                "https://gitlab.com/bitcodingsolutions/iptv_channels/-/raw/main/X_App/More_Urls/data_files/git_4_280.rutu",
                "https://gitlab.com/bitcodingsolutions/iptv_channels/-/raw/main/X_App/More_Urls/data_files/git_4_281.rutu",
                "https://gitlab.com/bitcodingsolutions/iptv_channels/-/raw/main/X_App/More_Urls/data_files/git_4_282.rutu",
                "https://gitlab.com/bitcodingsolutions/iptv_channels/-/raw/main/X_App/More_Urls/data_files/git_4_283.rutu",
                "https://gitlab.com/bitcodingsolutions/iptv_channels/-/raw/main/X_App/More_Urls/data_files/git_4_284.rutu",
                "https://gitlab.com/bitcodingsolutions/iptv_channels/-/raw/main/X_App/More_Urls/data_files/git_4_285.rutu",
                "https://gitlab.com/bitcodingsolutions/iptv_channels/-/raw/main/X_App/More_Urls/data_files/git_4_286.rutu",
                "https://gitlab.com/bitcodingsolutions/iptv_channels/-/raw/main/X_App/More_Urls/data_files/git_4_287.rutu",
                "https://gitlab.com/bitcodingsolutions/iptv_channels/-/raw/main/X_App/More_Urls/data_files/git_4_288.rutu",
                "https://gitlab.com/bitcodingsolutions/iptv_channels/-/raw/main/X_App/More_Urls/data_files/git_4_289.rutu",
                "https://gitlab.com/bitcodingsolutions/iptv_channels/-/raw/main/X_App/More_Urls/data_files/git_4_29.rutu",
                "https://gitlab.com/bitcodingsolutions/iptv_channels/-/raw/main/X_App/More_Urls/data_files/git_4_290.rutu",
                "https://gitlab.com/bitcodingsolutions/iptv_channels/-/raw/main/X_App/More_Urls/data_files/git_4_291.rutu",
                "https://gitlab.com/bitcodingsolutions/iptv_channels/-/raw/main/X_App/More_Urls/data_files/git_4_292.rutu"
            ]
        },
        {
            "country_imageUrl": "https://gitlab.com/bitcodingsolutions/iptv_channels/-/raw/main/X_App/More_Urls/data_images/UPornia.jpg",
            "country_name": "UP\u00d8rn!a",
            "Links": "https://iptvfree-adultos001.blogspot.com",
            "SubLinks": [
                "https://gitlab.com/bitcodingsolutions/iptv_channels/-/raw/main/X_App/More_Urls/data_files/git_4_293.rutu",
                "https://gitlab.com/bitcodingsolutions/iptv_channels/-/raw/main/X_App/More_Urls/data_files/git_4_294.rutu",
                "https://gitlab.com/bitcodingsolutions/iptv_channels/-/raw/main/X_App/More_Urls/data_files/git_4_295.rutu",
                "https://gitlab.com/bitcodingsolutions/iptv_channels/-/raw/main/X_App/More_Urls/data_files/git_4_296.rutu",
                "https://gitlab.com/bitcodingsolutions/iptv_channels/-/raw/main/X_App/More_Urls/data_files/git_4_297.rutu",
                "https://gitlab.com/bitcodingsolutions/iptv_channels/-/raw/main/X_App/More_Urls/data_files/git_4_298.rutu",
                "https://gitlab.com/bitcodingsolutions/iptv_channels/-/raw/main/X_App/More_Urls/data_files/git_4_3.rutu",
                "https://gitlab.com/bitcodingsolutions/iptv_channels/-/raw/main/X_App/More_Urls/data_files/git_4_30.rutu",
                "https://gitlab.com/bitcodingsolutions/iptv_channels/-/raw/main/X_App/More_Urls/data_files/git_4_31.rutu",
                "https://gitlab.com/bitcodingsolutions/iptv_channels/-/raw/main/X_App/More_Urls/data_files/git_4_32.rutu",
                "https://gitlab.com/bitcodingsolutions/iptv_channels/-/raw/main/X_App/More_Urls/data_files/git_4_33.rutu",
                "https://gitlab.com/bitcodingsolutions/iptv_channels/-/raw/main/X_App/More_Urls/data_files/git_4_34.rutu",
                "https://gitlab.com/bitcodingsolutions/iptv_channels/-/raw/main/X_App/More_Urls/data_files/git_4_35.rutu",
                "https://gitlab.com/bitcodingsolutions/iptv_channels/-/raw/main/X_App/More_Urls/data_files/git_4_36.rutu",
                "https://gitlab.com/bitcodingsolutions/iptv_channels/-/raw/main/X_App/More_Urls/data_files/git_4_37.rutu",
                "https://gitlab.com/bitcodingsolutions/iptv_channels/-/raw/main/X_App/More_Urls/data_files/git_4_38.rutu"
            ]
        },
        {
            "country_imageUrl": "https://gitlab.com/bitcodingsolutions/iptv_channels/-/raw/main/X_App/More_Urls/data_images/X-videos.jpg",
            "country_name": "X-v!de\u00d8s",
            "Links": "https://iptvfree-adultos001.blogspot.com",
            "SubLinks": [
                "https://gitlab.com/bitcodingsolutions/iptv_channels/-/raw/main/X_App/More_Urls/data_files/git_4_39.rutu",
                "https://gitlab.com/bitcodingsolutions/iptv_channels/-/raw/main/X_App/More_Urls/data_files/git_4_4.rutu",
                "https://gitlab.com/bitcodingsolutions/iptv_channels/-/raw/main/X_App/More_Urls/data_files/git_4_40.rutu",
                "https://gitlab.com/bitcodingsolutions/iptv_channels/-/raw/main/X_App/More_Urls/data_files/git_4_41.rutu",
                "https://gitlab.com/bitcodingsolutions/iptv_channels/-/raw/main/X_App/More_Urls/data_files/git_4_42.rutu",
                "https://gitlab.com/bitcodingsolutions/iptv_channels/-/raw/main/X_App/More_Urls/data_files/git_4_43.rutu",
                "https://gitlab.com/bitcodingsolutions/iptv_channels/-/raw/main/X_App/More_Urls/data_files/git_4_44.rutu",
                "https://gitlab.com/bitcodingsolutions/iptv_channels/-/raw/main/X_App/More_Urls/data_files/git_4_45.rutu",
                "https://gitlab.com/bitcodingsolutions/iptv_channels/-/raw/main/X_App/More_Urls/data_files/git_4_46.rutu",
                "https://gitlab.com/bitcodingsolutions/iptv_channels/-/raw/main/X_App/More_Urls/data_files/git_4_47.rutu",
                "https://gitlab.com/bitcodingsolutions/iptv_channels/-/raw/main/X_App/More_Urls/data_files/git_4_48.rutu",
                "https://gitlab.com/bitcodingsolutions/iptv_channels/-/raw/main/X_App/More_Urls/data_files/git_4_49.rutu",
                "https://gitlab.com/bitcodingsolutions/iptv_channels/-/raw/main/X_App/More_Urls/data_files/git_4_5.rutu",
                "https://gitlab.com/bitcodingsolutions/iptv_channels/-/raw/main/X_App/More_Urls/data_files/git_4_50.rutu",
                "https://gitlab.com/bitcodingsolutions/iptv_channels/-/raw/main/X_App/More_Urls/data_files/git_4_51.rutu",
                "https://gitlab.com/bitcodingsolutions/iptv_channels/-/raw/main/X_App/More_Urls/data_files/git_4_52.rutu"
            ]
        },
        {
            "country_imageUrl": "https://gitlab.com/bitcodingsolutions/iptv_channels/-/raw/main/X_App/More_Urls/data_images/X18.jpg",
            "country_name": "X/18",
            "Links": "https://iptvfree-adultos001.blogspot.com",
            "SubLinks": [
                "https://gitlab.com/bitcodingsolutions/iptv_channels/-/raw/main/X_App/More_Urls/data_files/git_4_53.rutu",
                "https://gitlab.com/bitcodingsolutions/iptv_channels/-/raw/main/X_App/More_Urls/data_files/git_4_54.rutu",
                "https://gitlab.com/bitcodingsolutions/iptv_channels/-/raw/main/X_App/More_Urls/data_files/git_4_55.rutu",
                "https://gitlab.com/bitcodingsolutions/iptv_channels/-/raw/main/X_App/More_Urls/data_files/git_4_56.rutu",
                "https://gitlab.com/bitcodingsolutions/iptv_channels/-/raw/main/X_App/More_Urls/data_files/git_4_57.rutu",
                "https://gitlab.com/bitcodingsolutions/iptv_channels/-/raw/main/X_App/More_Urls/data_files/git_4_58.rutu",
                "https://gitlab.com/bitcodingsolutions/iptv_channels/-/raw/main/X_App/More_Urls/data_files/git_4_59.rutu",
                "https://gitlab.com/bitcodingsolutions/iptv_channels/-/raw/main/X_App/More_Urls/data_files/git_4_6.rutu",
                "https://gitlab.com/bitcodingsolutions/iptv_channels/-/raw/main/X_App/More_Urls/data_files/git_4_60.rutu",
                "https://gitlab.com/bitcodingsolutions/iptv_channels/-/raw/main/X_App/More_Urls/data_files/git_4_61.rutu",
                "https://gitlab.com/bitcodingsolutions/iptv_channels/-/raw/main/X_App/More_Urls/data_files/git_4_62.rutu",
                "https://gitlab.com/bitcodingsolutions/iptv_channels/-/raw/main/X_App/More_Urls/data_files/git_4_63.rutu",
                "https://gitlab.com/bitcodingsolutions/iptv_channels/-/raw/main/X_App/More_Urls/data_files/git_4_64.rutu",
                "https://gitlab.com/bitcodingsolutions/iptv_channels/-/raw/main/X_App/More_Urls/data_files/git_4_65.rutu",
                "https://gitlab.com/bitcodingsolutions/iptv_channels/-/raw/main/X_App/More_Urls/data_files/git_4_66.rutu",
                "https://gitlab.com/bitcodingsolutions/iptv_channels/-/raw/main/X_App/More_Urls/data_files/git_4_67.rutu"
            ]
        },
        {
            "country_imageUrl": "https://gitlab.com/bitcodingsolutions/iptv_channels/-/raw/main/X_App/More_Urls/data_images/XHamster.jpg",
            "country_name": "XH@mster",
            "Links": "https://iptvfree-adultos001.blogspot.com",
            "SubLinks": [
                "https://gitlab.com/bitcodingsolutions/iptv_channels/-/raw/main/X_App/More_Urls/data_files/git_4_68.rutu",
                "https://gitlab.com/bitcodingsolutions/iptv_channels/-/raw/main/X_App/More_Urls/data_files/git_4_69.rutu",
                "https://gitlab.com/bitcodingsolutions/iptv_channels/-/raw/main/X_App/More_Urls/data_files/git_4_7.rutu",
                "https://gitlab.com/bitcodingsolutions/iptv_channels/-/raw/main/X_App/More_Urls/data_files/git_4_70.rutu",
                "https://gitlab.com/bitcodingsolutions/iptv_channels/-/raw/main/X_App/More_Urls/data_files/git_4_71.rutu",
                "https://gitlab.com/bitcodingsolutions/iptv_channels/-/raw/main/X_App/More_Urls/data_files/git_4_72.rutu",
                "https://gitlab.com/bitcodingsolutions/iptv_channels/-/raw/main/X_App/More_Urls/data_files/git_4_73.rutu",
                "https://gitlab.com/bitcodingsolutions/iptv_channels/-/raw/main/X_App/More_Urls/data_files/git_4_74.rutu",
                "https://gitlab.com/bitcodingsolutions/iptv_channels/-/raw/main/X_App/More_Urls/data_files/git_4_75.rutu",
                "https://gitlab.com/bitcodingsolutions/iptv_channels/-/raw/main/X_App/More_Urls/data_files/git_4_76.rutu",
                "https://gitlab.com/bitcodingsolutions/iptv_channels/-/raw/main/X_App/More_Urls/data_files/git_4_77.rutu",
                "https://gitlab.com/bitcodingsolutions/iptv_channels/-/raw/main/X_App/More_Urls/data_files/git_4_78.rutu",
                "https://gitlab.com/bitcodingsolutions/iptv_channels/-/raw/main/X_App/More_Urls/data_files/git_4_79.rutu",
                "https://gitlab.com/bitcodingsolutions/iptv_channels/-/raw/main/X_App/More_Urls/data_files/git_4_8.rutu",
                "https://gitlab.com/bitcodingsolutions/iptv_channels/-/raw/main/X_App/More_Urls/data_files/git_4_80.rutu",
                "https://gitlab.com/bitcodingsolutions/iptv_channels/-/raw/main/X_App/More_Urls/data_files/git_4_81.rutu"
            ]
        },
        {
            "country_imageUrl": "https://gitlab.com/bitcodingsolutions/iptv_channels/-/raw/main/X_App/More_Urls/data_images/XNXX.jpg",
            "country_name": "XN-XX",
            "Links": "https://iptvfree-adultos001.blogspot.com",
            "SubLinks": [
                "https://gitlab.com/bitcodingsolutions/iptv_channels/-/raw/main/X_App/More_Urls/data_files/git_4_82.rutu",
                "https://gitlab.com/bitcodingsolutions/iptv_channels/-/raw/main/X_App/More_Urls/data_files/git_4_83.rutu",
                "https://gitlab.com/bitcodingsolutions/iptv_channels/-/raw/main/X_App/More_Urls/data_files/git_4_84.rutu",
                "https://gitlab.com/bitcodingsolutions/iptv_channels/-/raw/main/X_App/More_Urls/data_files/git_4_85.rutu",
                "https://gitlab.com/bitcodingsolutions/iptv_channels/-/raw/main/X_App/More_Urls/data_files/git_4_86.rutu",
                "https://gitlab.com/bitcodingsolutions/iptv_channels/-/raw/main/X_App/More_Urls/data_files/git_4_87.rutu",
                "https://gitlab.com/bitcodingsolutions/iptv_channels/-/raw/main/X_App/More_Urls/data_files/git_4_88.rutu",
                "https://gitlab.com/bitcodingsolutions/iptv_channels/-/raw/main/X_App/More_Urls/data_files/git_4_89.rutu",
                "https://gitlab.com/bitcodingsolutions/iptv_channels/-/raw/main/X_App/More_Urls/data_files/git_4_9.rutu",
                "https://gitlab.com/bitcodingsolutions/iptv_channels/-/raw/main/X_App/More_Urls/data_files/git_4_90.rutu",
                "https://gitlab.com/bitcodingsolutions/iptv_channels/-/raw/main/X_App/More_Urls/data_files/git_4_91.rutu",
                "https://gitlab.com/bitcodingsolutions/iptv_channels/-/raw/main/X_App/More_Urls/data_files/git_4_92.rutu",
                "https://gitlab.com/bitcodingsolutions/iptv_channels/-/raw/main/X_App/More_Urls/data_files/git_4_93.rutu",
                "https://gitlab.com/bitcodingsolutions/iptv_channels/-/raw/main/X_App/More_Urls/data_files/git_4_94.rutu",
                "https://gitlab.com/bitcodingsolutions/iptv_channels/-/raw/main/X_App/More_Urls/data_files/git_4_95.rutu",
                "https://gitlab.com/bitcodingsolutions/iptv_channels/-/raw/main/X_App/More_Urls/data_files/git_4_96.rutu"
            ]
        },
        {
            "country_imageUrl": "https://gitlab.com/bitcodingsolutions/iptv_channels/-/raw/main/X_App/More_Urls/data_images/YouPorn.png",
            "country_name": "Y\u00d8uP\u00d8rn",
            "Links": "https://iptvfree-adultos001.blogspot.com",
            "SubLinks": [
                "https://gitlab.com/bitcodingsolutions/iptv_channels/-/raw/main/X_App/More_Urls/data_files/git_4_97.rutu",
                "https://gitlab.com/bitcodingsolutions/iptv_channels/-/raw/main/X_App/More_Urls/data_files/git_4_98.rutu",
                "https://gitlab.com/bitcodingsolutions/iptv_channels/-/raw/main/X_App/More_Urls/data_files/git_4_99.rutu",
                "https://gitlab.com/bitcodingsolutions/iptv_channels/-/raw/main/X_App/More_Urls/data_files/git_5.rutu",
                "https://gitlab.com/bitcodingsolutions/iptv_channels/-/raw/main/X_App/More_Urls/data_files/git_6.rutu",
                "https://gitlab.com/bitcodingsolutions/iptv_channels/-/raw/main/X_App/More_Urls/data_files/git_7.rutu",
                "https://gitlab.com/bitcodingsolutions/iptv_channels/-/raw/main/X_App/More_Urls/data_files/git_8.rutu",
                "https://gitlab.com/bitcodingsolutions/iptv_channels/-/raw/main/X_App/More_Urls/data_files/git_9.rutu"
            ]
        }
    ]
}
