{		
	"com.myiptv.playlist": 	
	{	
		
	"ads_sequence": [	
		"facebook_ads",
		"app_lovin"
		
	],	
	"more_app_url": "https://play.google.com/store/apps/developer?id=Apptizer+LLC", 	
	"extra_url": "https://gitlab.com/bitcodingsolutions/iptv_channels/-/raw/main/allcountrylist.json", 	
	"iptv_player_url": "com.pocketiptv",	
	"ad_setting": {	
		
		"app_version_code": 5,
		
		"is_full_ads": false,
		"onesignal_id": "07de0128-c4bc-45f0-8baa-6867a262a6b7", 
		"ads_loading_text": "Ads will loading...",
		"global_intra_interval_click": 1,
		"interstitial_ad_time_interval": 0
		"native_ad_list_interval": 3
	},	
	"app_update": {	
		"is_popup_dialog": true,
		"is_update_require": false,
		"package_id": "com.myiptv.playlist", 
		"website_url": "https://myiptv-playlist.blogspot.com/", 
		"app_icon": "https://play-lh.googleusercontent.com/8mPNKodK65zCjQHS8aqF4o0cX9YlKZYN-3qYCd9oMlcTkGaAf_3AxB0vnE9Kud6bPw=w240-h480-rw",
		"updated_version_code": 50,
		"title": "App Update",
		"default_message": "Your App is up to date."
	},	
	"exit_dialog": {	
		"is_exit_require": true,
		"exit_title": "Exit",
		"exit_message": "Do you want to exit from App?"
	},	
	"reward_dialog": {      	
		"is_reward_require": true,
		"reward_message": "Watch Reward ads for More Random Video call"
	},     	
		
	"About_App": {	
		"is_override": false,
		"is_about_app": true,
		"about_title": "My IPTV Channels Playlist", 
		"about_message": "Your app need an Update!",
		"registration_detail": "My IPTV Channels Playlist", 
		"version_detail": "version : 1.0.0"
	},	
	"rate_app": {	
		"is_rate_app": true,
		"package_id": "com.myiptv.playlist", 
		"rate_app_url": "https://play.google.com/store/apps/details?id=com.myiptv.playlist", 
		"rate_message": "Please Rate us and promote us."
	},	
	"share_app": {	
		"is_share_app": true,
		"share_title": "Share link url :https://play.google.com/store/apps/details?id=com.myiptv.playlist", 
		"share_message": "Now anyone can get My IPTV Channels Playlist app : https://play.google.com/store/apps/details?id=com.myiptv.playlist" 
	},	
	"privacy_policy": {	
		"is_privacy_policy": true,
		"is_system_browser": true,
		"privacy_policy": "https://pages.flycricket.io/my-iptv-channels-pla/privacy.html" 
	},	
	"terms_of_use": {	
		"is_terms_of_use": true,
		"is_system_browser": true,
		"terms_of_use": "https://pages.flycricket.io/my-iptv-channels-pla/privacy.html" 
	},	
	"error_report": {	
		"is_error_report_support": true,
		"email_id": "mailto:apptizer.llc@gmail.com"
	},	
	"feedback_support": {	
		"is_feedback_support": true,
		"email_id":"mailto:apptizer.llc@gmail.com",
		"feedback_title": "Feedback on My IPTV Channels Playlist",
		"feedback_message": "Hi,\n\n\nYour Feedback My IPTV Channels Playlist! I would like to give you some feedback:",
		"email_subject": "Feedback on My IPTV Channels Playlist",
		"email_message": "Hi,\n\n\nYour Feedback My IPTV Channels Playlist! I would like to give you some feedback:"
		
	},	
	"google_ads": {	
		"banner_ad_unit_id_android": "/6499/example/banner", 
		"interstitial_ad_unit_id_android": "/6499/example/interstitial", 
		"app_open_ad_unit_id_android": "/6499/example/app-open", 
		"native_ads_unit_id_android": "/6499/example/native", 
		"rewared_ads_unit_id": "/6499/example/rewarded", 
		"native_video_ads_unit_id_android": "/6499/example/native-video", 
		"is_banner_ads": true,
		"is_open_ads": true,
		"is_interstitial_ads": true,
		"is_rewared_ads": true,
		"is_native_ads": true,
		"no_of_click_interstitial": 1
	},	
	"facebook_ads": {	
		"banner_ad_unit_id_android": "", 
		"interstitial_ad_unit_id_android": "", 
		"app_open_ad_unit_id_android": "", 
		"native_ads_unit_id_android": "", 
		"rewared_ads_unit_id": "", 
		"native_video_ads_unit_id_android": "", 
		"is_banner_ads": true,
		"is_open_ads": true,
		"is_interstitial_ads": true,
		"is_rewared_ads": true,
		"is_native_ads": true,
		"no_of_click_interstitial": 1
	},	
	"custom_ads": {	
		"qureka_link": "https://490.go.qureka.com/intro/question",
		"is_quraka_banner": true,
		"is_quraka_intera": true,
		"close_button_to_direct_web": true,
		"quraka_intra_image": [
		"https://github.com/pragneshpalsanabitcoding/image_quraka/blob/main/360X640_1.png?raw=true",
		"https://github.com/pragneshpalsanabitcoding/image_quraka/blob/main/360X640_2.png?raw=true",
		"https://github.com/pragneshpalsanabitcoding/image_quraka/blob/main/360X640_3.png?raw=true",
		"https://github.com/pragneshpalsanabitcoding/image_quraka/blob/main/360X640_4.png?raw=true",
		"https://github.com/pragneshpalsanabitcoding/image_quraka/blob/main/360X640_5.png?raw=true",
		"https://github.com/pragneshpalsanabitcoding/image_quraka/blob/main/360X640_6.png?raw=true"
	],	
	"quraka_banner_image": [	
		"https://github.com/pragneshpalsanabitcoding/image_quraka/blob/main/2.jpg?raw=true",
		"https://github.com/pragneshpalsanabitcoding/image_quraka/blob/main/3.jpg?raw=true",
		"https://github.com/pragneshpalsanabitcoding/image_quraka/blob/main/320x50.jpg?raw=true",
		"https://github.com/pragneshpalsanabitcoding/image_quraka/blob/main/4.jpg?raw=true",
		"https://github.com/pragneshpalsanabitcoding/image_quraka/blob/main/5.jpg?raw=true",
		"https://github.com/pragneshpalsanabitcoding/image_quraka/blob/main/6.jpg?raw=true"
	]	
	},	
	"app_lovin": {	
		"is_unlimited_ads": true,
		
		"id_unit_banner": "c627779fcaa3cbe3",
		"id_unit_intra": "11ca10e1407e8d0f",
		"id_unit_native_multiple": 
		{
		   "small":"9632213c2b615176",
		   "medium":"8e4ac4cda97b3d52",
		   "manual":"b8408ff8ba0188c3"
		 },
		"rewared_ads_unit_id": "788e6826808014df",
		"is_banner_ads": true,
		"is_interstitial_ads": true,
		"is_native_ads": false,
		"is_rewared_ads": true
	},	
	"unity_ads": {	
		"game_id": "4737797",
		"is_intra_ads": true,
		"is_banner_ads": true,
		"is_rewared_ads": true
	}	
	}	
}		
