{		
	"com.bitlinks.english.iptv.m3ulist": 	
	{	
		
	"ads_sequence": [	
		"facebook_ads",
		"app_lovin"
		
	],	
	"more_app_url": "https://play.google.com/store/apps/developer?id=Bit+Links", 	
	"extra_url": "https://gitlab.com/bitcodingsolutions/iptv_channels/-/raw/main/English%20Channels.json", 	
	"more_live_apps":"https://gitlab.com/vs.bitcoding/live_apps/-/raw/main/live_apps.json",	
	"iptv_player_url": "com.pocketiptv",	
	"ad_setting": {	

		"app_version_code": 4,	

		"is_full_ads": true,
		"onesignal_id": "07de0128-c4bc-45f0-8baa-6867a262a6b7", 
		"ads_loading_text": "Ads will loading...",
		"global_intra_interval_click": 1,
		"interstitial_ad_time_interval": 0,
		"native_ad_list_interval": 3

	},	
	"app_update": {	
		"is_popup_dialog": true,
		"is_update_require": false,
		"package_id": "com.adult.iptv.hot.playlist", 
		"website_url": "https://play.google.com/store/apps/details?id=com.adult.iptv.hot.playlist", 
		"app_icon": "https://play-lh.googleusercontent.com/puoKL06VOKbYoXPB-O2JfueIgMDuy2vGWdSZ7f7XsGG9idZQ7Sr42E54Uv-M5a5fqXo=w240-h480-rw",
		"updated_version_code": 50,
		"title": "Enjoy Free Live Channels",
		"default_message": "Don't feel Alone."
	},	
	"exit_dialog": {	
		"is_exit_require": true,
		"exit_title": "Exit",
		"exit_message": "Do you want to exit from App?"
	},
	"reward_dialog": {	
		"is_reward_require": true,
		"reward_message": "Watch Reward ads for get TV Channel list"
   	 },	
	"About_App": {	
		"is_override": false,
		"is_about_app": true,
		"about_title": "English IPTV Links m3u Playlists", 
		"about_message": "Your app need an Update!",
		"registration_detail": "English IPTV Links m3u Playlists", 
		"version_detail": "version : 1.0.0"
	},	
	"rate_app": {	
		"is_rate_app": true,
		"package_id": "com.bitlinks.english.iptv.m3ulist", 
		"rate_app_url": "https://play.google.com/store/apps/details?id=com.bitlinks.english.iptv.m3ulist", 
		"rate_message": "Please Rate us and promote us."
	},	
	"share_app": {	
		"is_share_app": true,
		"share_title": "Share link url :https://play.google.com/store/apps/details?id=com.bitlinks.english.iptv.m3ulist", 
		"share_message": "Now anyone can get English IPTV Links m3u Playlists app : https://play.google.com/store/apps/details?id=com.bitlinks.english.iptv.m3ulist" 
	},	
	"privacy_policy": {	
		"is_privacy_policy": true,
		"is_system_browser": true,
		"privacy_policy": "https://pages.flycricket.io/english-iptv-links-m/privacy.html" 
	},	
	"terms_of_use": {	
		"is_terms_of_use": true,
		"is_system_browser": true,
		"terms_of_use": "https://pages.flycricket.io/english-iptv-links-m/privacy.html" 
	},	
	"error_report": {	
		"is_error_report_support": true,
		"email_id": "mailto:bitlinks.llc@gmail.com"
	},	
	"feedback_support": {	
		"is_feedback_support": true,
		"email_id":"mailto:bitlinks.llc@gmail.com",
		"feedback_title": "Feedback on English IPTV Links m3u Playlists",
		"feedback_message": "Hi,\n\n\nYour Feedback English IPTV Links m3u Playlists! I would like to give you some feedback:",
		"email_subject": "Feedback on English IPTV Links m3u Playlists",
		"email_message": "Hi,\n\n\nYour Feedback English IPTV Links m3u Playlists! I would like to give you some feedback:"
		
	},	
	"google_ads": {	
		"banner_ad_unit_id_android": "/6499/example/banner", 
		"interstitial_ad_unit_id_android": "/6499/example/interstitial", 
		"app_open_ad_unit_id_android": "/6499/example/app-open", 
		"native_ads_unit_id_android": "/6499/example/native", 
		"rewared_ads_unit_id": "/6499/example/rewarded", 
		"native_video_ads_unit_id_android": "/6499/example/native-video", 
		"is_banner_ads": true,
		"is_open_ads": true,
		"is_interstitial_ads": true,
		"is_rewared_ads": true,
		"is_native_ads": true,
		"no_of_click_interstitial": 1
	},	
	"facebook_ads": {	
		"banner_ad_unit_id_android": "1919250664930838_1919251124930792", 
		"interstitial_ad_unit_id_android": "1919250664930838_1919251148264123", 
		"rewared_ads_unit_id": "1919250664930838_1919251271597444", 
		"native_ads_unit_id_android": "1919250664930838_1919251184930786", 
		"is_banner_ads": true,
		"is_interstitial_ads": true,
		"is_rewared_ads": false,
		"is_native_ads": true,
		"no_of_click_interstitial": 1
	},
        "custom_ads": { 
                "qureka_link": "https://490.go.qureka.com/intro/question",
                "is_quraka_banner": true,
                "is_quraka_intera": true,
                "is_quraka_native": true,
                "close_button_to_direct_web": true,
        "quraka_intra_image": [ 
                "https://github.com/pragneshpalsanabitcoding/image_quraka/blob/main/360X640_1.png?raw=true",
                "https://github.com/pragneshpalsanabitcoding/image_quraka/blob/main/360X640_2.png?raw=true",
                "https://github.com/pragneshpalsanabitcoding/image_quraka/blob/main/360X640_3.png?raw=true",
                "https://github.com/pragneshpalsanabitcoding/image_quraka/blob/main/360X640_4.png?raw=true",
                "https://github.com/pragneshpalsanabitcoding/image_quraka/blob/main/360X640_5.png?raw=true"
        ],      
        "quraka_native_image": [        
                "https://github.com/pragneshpalsanabitcoding/image_quraka/blob/main/3.jpg?raw=true",
                "https://github.com/pragneshpalsanabitcoding/image_quraka/blob/main/320x50.jpg?raw=true",
                "https://github.com/pragneshpalsanabitcoding/image_quraka/blob/main/4.jpg?raw=true",
                "https://github.com/pragneshpalsanabitcoding/image_quraka/blob/main/6.jpg?raw=true"
        ],      
        "quraka_banner_image": [        
                "https://github.com/pragneshpalsanabitcoding/image_quraka/blob/main/2.jpg?raw=true",
                "https://github.com/pragneshpalsanabitcoding/image_quraka/blob/main/3.jpg?raw=true",
                "https://github.com/pragneshpalsanabitcoding/image_quraka/blob/main/320x50.jpg?raw=true",
                "https://github.com/pragneshpalsanabitcoding/image_quraka/blob/main/4.jpg?raw=true",
                "https://github.com/pragneshpalsanabitcoding/image_quraka/blob/main/5.jpg?raw=true",
                "https://github.com/pragneshpalsanabitcoding/image_quraka/blob/main/6.jpg?raw=true"
        ]
	
	},	
	"app_lovin": {	
		"sdk_key":"l2eHJCxgHTn4tTHns3A55HzXG6ekoyDJigM2SxRmGSN6T1bNmT37tTDW0UxVBVkUepJxXKxFQ8yPMONBdyKO3A",
		"is_unlimited_ads": true,
		"id_unit_banner": "eb663bd852cec33d",
		"id_unit_intra": "12dbaa569797a2d7",
		"id_unit_open": "5edb5d714fb7a154",
		"id_unit_native_multiple": 
				{
     			        "small":"1d7452a663e76862",
      		        	"medium":"f330bac72f03dbf9",
    			        "manual":"888059839f87bfea"
  				},
		"rewared_ads_unit_id": "14ddc03cf6a10b2f",
		"is_banner_ads": true,
		"is_open_ads": true,
		"is_interstitial_ads": true,
		"is_native_ads": true,
		"is_rewared_ads": true
	}	
	}	
}		
