{
  "TV_Data": {
    "Channel_List": {
      "is_channel_list": true,
      "is_override": true,
      "thumb_width": 150,
      "all_Channels_Tab_Name": "",
      "main": {
        "id": 15,
        "name": "Netherlands Channels",
        "sub_name": "Channels",
        "thumbnail_url": "https://www.iptv-updated.com/wp-content/uploads/2019/12/iconfinder_flag-the-netherlands_748017.png",
        "sub": {
          "sub_1": {
            "id": 1,
            "mode": "video",
            "name": "1Twente",
            "sub_name": "",
            "stream_video_url": "http://ms7.mx-cd.net/tv/198-989148/1Twente_TV.smil/playlist.m3u8",
            "thumbnail_url": "https://www.iptv-updated.com/wp-content/themes/shootingstar-child/uploaded_images/1twente_img_2868.png"
          },
          "sub_2": {
            "id": 2,
            "mode": "video",
            "name": "1Twente",
            "sub_name": "",
            "stream_video_url": "https://ms7.mx-cd.net/tv/198-989148/1Twente_TV.smil/playlist.m3u8",
            "thumbnail_url": "https://www.iptv-updated.com/wp-content/themes/shootingstar-child/uploaded_images/1twente_img_2868.png"
          },
          "sub_3": {
            "id": 3,
            "mode": "website",
            "name_original": "",
            "name": "VidChat : Live",
            "sub_name": "Random Video Chat (Ad)",
            "website_url": "https://play.google.com/store/apps/details?id=com.booya.videochat",
            "is_system_browser": true,
            "thumbnail_url": "https://play-lh.googleusercontent.com/OwvRNTvvyUo8g9MQUdJJBGT_cL4S7ObS_xCyzwHYTS-rLrapbZzD1cQYowyHy-uVgw=w240-h480-rw",
            "thumbnail_url_original": ""
          },
          "sub_4": {
            "id": 4,
            "mode": "video",
            "name": "Den Haag TV",
            "sub_name": "",
            "stream_video_url": "http://wowza5.video-streams.nl:1935/denhaag/denhaag/playlist.m3u8",
            "thumbnail_url": "https://www.iptv-updated.com/wp-content/themes/shootingstar-child/uploaded_images/den_haag_tv_img_2874.png"
          },
          "sub_5": {
            "id": 5,
            "mode": "video",
            "name": "EDE TV",
            "sub_name": "",
            "stream_video_url": "https://ms7.mx-cd.net/tv/113-474263/EdeTV.smil/chunklist_w1121029744_b1894400_slNLD.m3u8?fluxustv.m3u8",
            "thumbnail_url": "https://www.iptv-updated.com/wp-content/themes/shootingstar-child/uploaded_images/ede_tv_img_2876.png"
          },
          "sub_6": {
            "id": 6,
            "mode": "website",
            "name_original": "",
            "name": "World IPTV",
            "sub_name": "IPTV m3u Playlists(Ad)",
            "website_url": "https://play.google.com/store/apps/details?id=com.iptv.m3u.playlists",
            "is_system_browser": true,
            "thumbnail_url": "https://play-lh.googleusercontent.com/8mPNKodK65zCjQHS8aqF4o0cX9YlKZYN-3qYCd9oMlcTkGaAf_3AxB0vnE9Kud6bPw=w240-h480-rw",
            "thumbnail_url_original": ""
          },
          "sub_7": {
            "id": 7,
            "mode": "video",
            "name": "EDE TV",
            "sub_name": "",
            "stream_video_url": "https://ms7.mx-cd.net/tv/113-474263/EdeTV.smil/chunklist.m3u8",
            "thumbnail_url": "https://www.iptv-updated.com/wp-content/themes/shootingstar-child/uploaded_images/ede_tv_img_2876.png"
          },
          "sub_8": {
            "id": 8,
            "mode": "video",
            "name": "L1 TV NL",
            "sub_name": "",
            "stream_video_url": "http://d34pj260kw1xmk.cloudfront.net/live/l1/tv/index.m3u8",
            "thumbnail_url": "https://www.iptv-updated.com/wp-content/themes/shootingstar-child/uploaded_images/l1_tv_nl_img_546.png"
          },
          "sub_9": {
            "id": 9,
            "mode": "website",
            "name_original": "",
            "name": "India Live Tv",
            "sub_name": "Live Tv channels (Ad)",
            "website_url": "https://play.google.com/store/apps/details?id=com.tvgram.indialivetv",
            "is_system_browser": true,
            "thumbnail_url": "https://i.postimg.cc/Gm3YYCdq/India-Tv.png",
            "thumbnail_url_original": ""
          },
          "sub_10": {
            "id": 10,
            "mode": "video",
            "name": "Meer TV",
            "sub_name": "",
            "stream_video_url": "http://593aed234297b.streamlock.net/meervandaag/meervandaag/chunklist_w733465808.m3u8",
            "thumbnail_url": "https://www.iptv-updated.com/wp-content/themes/shootingstar-child/uploaded_images/meer_tv_img_2880.png"
          },
          "sub_11": {
            "id": 11,
            "mode": "video",
            "name": "Meer TV",
            "sub_name": "",
            "stream_video_url": "https://593aed234297b.streamlock.net/meervandaag/meervandaag/playlist.m3u8",
            "thumbnail_url": "https://www.iptv-updated.com/wp-content/themes/shootingstar-child/uploaded_images/meer_tv_img_2880.png"
          },
          "sub_12": {
            "id": 12,
            "mode": "website",
            "name_original": "",
            "name": "YoYo Video Calls",
            "sub_name": "Live Random Video Chat (Ad)",
            "website_url": "https://play.google.com/store/apps/details?id=com.yoyolive.llc",
            "is_system_browser": true,
            "thumbnail_url": "https://i.postimg.cc/KvDBRzS1/YOYO.png",
            "thumbnail_url_original": ""
          },
          "sub_13": {
            "id": 13,
            "mode": "video",
            "name": "Omroep Brabant",
            "sub_name": "",
            "stream_video_url": "https://d3slqp9xhts6qb.cloudfront.net/live/omroepbrabant/tv/index.m3u8",
            "thumbnail_url": "https://www.iptv-updated.com/wp-content/themes/shootingstar-child/uploaded_images/omroep_brabant_img_2882.png"
          },
          "sub_14": {
            "id": 14,
            "mode": "video",
            "name": "Omroep Brabant Radio",
            "sub_name": "",
            "stream_video_url": "http://d3slqp9xhts6qb.cloudfront.net/live/omroepbrabant/visualradio/index.m3u8",
            "thumbnail_url": "https://www.iptv-updated.com/wp-content/themes/shootingstar-child/uploaded_images/omroep_brabant_radio_img_2883.png"
          },
          "sub_15": {
            "id": 15,
            "mode": "website",
            "name_original": "",
            "name": "USA Live TV",
            "sub_name": "USA Tv channels (Ad)",
            "website_url": "https://play.google.com/store/apps/details?id=com.tvgram.usalivetv",
            "is_system_browser": true,
            "thumbnail_url": "https://i.postimg.cc/gJh6dcHk/USA-Tv.png",
            "thumbnail_url_original": ""
          },
          "sub_16": {
            "id": 16,
            "mode": "video",
            "name": "Omroep Ede",
            "sub_name": "",
            "stream_video_url": "https://ms7.mx-cd.net/tv/113-474263/EdeTV.smil/playlist.m3u8",
            "thumbnail_url": "https://www.iptv-updated.com/wp-content/themes/shootingstar-child/uploaded_images/omroep_ede_img_3376.png"
          },
          "sub_17": {
            "id": 17,
            "mode": "video",
            "name": "Omroep Flevoland",
            "sub_name": "",
            "stream_video_url": "http://d5ms27yy6exnf.cloudfront.net/live/omroepflevoland/tv/index.m3u8",
            "thumbnail_url": "https://www.iptv-updated.com/wp-content/themes/shootingstar-child/uploaded_images/omroep_flevoland_img_2884.png"
          },
          "sub_18": {
            "id": 18,
            "mode": "website",
            "name_original": "",
            "name": "India IPTV List",
            "sub_name": "Indian m3u Playlist (Ad)",
            "website_url": "https://play.google.com/store/apps/details?id=com.bitlinks.india.iptv.m3ulist",
            "is_system_browser": true,
            "thumbnail_url": "https://play-lh.googleusercontent.com/l3rJ2qzJtRFzqUzr55ano_WEhcDx5YznwIpd7uRVxooEbOW5444QY8HeeZbiZhd4Ayc=w240-h480-rw",
            "thumbnail_url_original": ""
          },
          "sub_19": {
            "id": 19,
            "mode": "video",
            "name": "Omroep P&M",
            "sub_name": "",
            "stream_video_url": "http://ms7.mx-cd.net/tv/153-840564/Omroep_Peel_en_Maas_TV.smil/chunklist.m3u8",
            "thumbnail_url": "https://www.iptv-updated.com/wp-content/themes/shootingstar-child/uploaded_images/omroep_p&m_img_2885.png"
          },
          "sub_20": {
            "id": 20,
            "mode": "video",
            "name": "Omroep P&M",
            "sub_name": "",
            "stream_video_url": "https://ms7.mx-cd.net/tv/153-840564/Omroep_Peel_en_Maas_TV.smil/chunklist.m3u8",
            "thumbnail_url": "https://www.iptv-updated.com/wp-content/themes/shootingstar-child/uploaded_images/omroep_p&m_img_2885.png"
          },
          "sub_21": {
            "id": 21,
            "mode": "website",
            "name_original": "",
            "name": "Cash Counter",
            "sub_name": "Cash Calculator",
            "website_url": "https://play.google.com/store/apps/details?id=com.money_count_save",
            "is_system_browser": true,
            "thumbnail_url": "https://play-lh.googleusercontent.com/kB7MXSAbO8vKrfbnM8QrzIcNbNm2tWH8rImp5xsIZY1lwKqK3FkNkEFRQpyskJliEbQ=w240-h480-rw",
            "thumbnail_url_original": ""
          },
          "sub_22": {
            "id": 22,
            "mode": "video",
            "name": "Omroep Tilburg",
            "sub_name": "",
            "stream_video_url": "https://ms2.mx-cd.net/tv/184-782326/Omroep_Tilburg_TV.smil/playlist.m3u8",
            "thumbnail_url": "https://www.iptv-updated.com/wp-content/themes/shootingstar-child/uploaded_images/omroep_tilburg_img_2887.png"
          },
          "sub_23": {
            "id": 23,
            "mode": "video",
            "name": "Omroep West",
            "sub_name": "",
            "stream_video_url": "https://d2dslh4sd7yvc1.cloudfront.net/live/omroepwest/ngrp:tv-feed_all/playlist.m3u8",
            "thumbnail_url": "https://www.iptv-updated.com/wp-content/themes/shootingstar-child/uploaded_images/omroep_west_img_3378.png"
          },
          "sub_24": {
            "id": 24,
            "mode": "website",
            "name_original": "",
            "name": "German Live Tv",
            "sub_name": "Live Tv Channels (Ad)",
            "website_url": "https://play.google.com/store/apps/details?id=com.tvgram.germanlivetv",
            "is_system_browser": true,
            "thumbnail_url": "https://i.postimg.cc/tJHng0Bd/German-TV.png",
            "thumbnail_url_original": ""
          },
          "sub_25": {
            "id": 25,
            "mode": "video",
            "name": "Omroep Zeeland",
            "sub_name": "",
            "stream_video_url": "https://d3isaxd2t6q8zm.cloudfront.net/live/omroepzeeland/tv/index.m3u8",
            "thumbnail_url": "https://www.iptv-updated.com/wp-content/themes/shootingstar-child/uploaded_images/omroep_zeeland_img_2888.png"
          },
          "sub_26": {
            "id": 26,
            "mode": "video",
            "name": "Qmusic",
            "sub_name": "",
            "stream_video_url": "https://dpp-qmusicnl-live.akamaized.net/streamx/QmusicNL.m3u8",
            "thumbnail_url": "https://www.iptv-updated.com/wp-content/themes/shootingstar-child/uploaded_images/qmusic_img_2892.png"
          },
          "sub_27": {
            "id": 27,
            "mode": "website",
            "name_original": "",
            "name": "Loveme video Chat",
            "sub_name": "Random Video Chat (Ad)",
            "website_url": "https://play.google.com/store/apps/details?id=com.minichat.loveme.randome.videochat",
            "is_system_browser": true,
            "thumbnail_url": "https://play-lh.googleusercontent.com/TtbIIApy4sV1iyFKNEgoyNso6yjHo63XJIVqTuLQ2mIX3mohug1irZ6XHCDTa0ySjA=w240-h480-rw",
            "thumbnail_url_original": ""
          },
          "sub_28": {
            "id": 28,
            "mode": "video",
            "name": "Regio TV Nieuws",
            "sub_name": "",
            "stream_video_url": "http://highvolume04.streampartner.nl/regiomedia/regiomedia/playlist.m3u8",
            "thumbnail_url": "https://www.iptv-updated.com/wp-content/themes/shootingstar-child/uploaded_images/regio_tv_nieuws_img_2898.png"
          },
          "sub_29": {
            "id": 29,
            "mode": "video",
            "name": "RTV Arnhem",
            "sub_name": "",
            "stream_video_url": "http://ms2.mx-cd.net/tv/163-669433/RTV_Arnhem.smil/chunklist_b1894400_slNLD.m3u8",
            "thumbnail_url": "https://www.iptv-updated.com/wp-content/themes/shootingstar-child/uploaded_images/rtv_arnhem_img_2900.png"
          },
          "sub_30": {
            "id": 30,
            "mode": "website",
            "name_original": "",
            "name": "Dream 11",
            "sub_name": "Live Scricket Score (Ad)",
            "website_url": "https://play.google.com/store/apps/details?id=com.bitmedia.ipl2k22",
            "is_system_browser": true,
            "thumbnail_url": "https://play-lh.googleusercontent.com/yAiVkEdk1YbKEvZf6SLujni0dQgA9U2_B86aqt0_k-b2_ASEWjnqdeL-UyNq-GWx1Jc=w240-h480-rw",
            "thumbnail_url_original": ""
          },
          "sub_31": {
            "id": 31,
            "mode": "video",
            "name": "RTV Dordrecht",
            "sub_name": "",
            "stream_video_url": "http://ms7.mx-cd.net/dtv-02/107-475823/RTV_Dordrecht.smil/chunklist_w1043703258_b1894400_slNLD.m3u8",
            "thumbnail_url": "https://www.iptv-updated.com/wp-content/themes/shootingstar-child/uploaded_images/rtv_dordrecht_img_2901.png"
          },
          "sub_32": {
            "id": 32,
            "mode": "video",
            "name": "RTV Dordrecht",
            "sub_name": "",
            "stream_video_url": "https://ms7.mx-cd.net/dtv-02/107-475823/RTV_Dordrecht.smil/playlist.m3u8",
            "thumbnail_url": "https://www.iptv-updated.com/wp-content/themes/shootingstar-child/uploaded_images/rtv_dordrecht_img_2901.png"
          },
          "sub_33": {
            "id": 33,
            "mode": "website",
            "name_original": "",
            "name": "Joli Video Chat",
            "sub_name": "Random Video Chat (Ad)",
            "website_url": "https://play.google.com/store/apps/details?id=com.minichat.joli.random.videochat",
            "is_system_browser": true,
            "thumbnail_url": "https://play-lh.googleusercontent.com/ODeJvN0w3lTWCQQrzndPvge2xjMVfrVewgWfi0zHeLYFi5397N4_c4-GlYStW77skQ=w240-h480-rw",
            "thumbnail_url_original": ""
          },
          "sub_34": {
            "id": 34,
            "mode": "video",
            "name": "RTV Noord",
            "sub_name": "",
            "stream_video_url": "https://media.rtvnoord.nl/live/rtvnoord/tv/index.m3u8",
            "thumbnail_url": "https://www.iptv-updated.com/wp-content/themes/shootingstar-child/uploaded_images/rtv_noord_img_2905.png"
          },
          "sub_35": {
            "id": 35,
            "mode": "video",
            "name": "RTV Noord Extra",
            "sub_name": "",
            "stream_video_url": "http://media.rtvnoord.nl/live/rtvnoord/extra/index.m3u8",
            "thumbnail_url": "https://www.iptv-updated.com/wp-content/themes/shootingstar-child/uploaded_images/rtv_noord_extra_img_2906.png"
          },
          "sub_36": {
            "id": 36,
            "mode": "website",
            "name_original": "",
            "name": "Video Player",
            "sub_name": "HD Video Player (Ad)",
            "website_url": "https://play.google.com/store/apps/details?id=com.line.hdplayer",
            "is_system_browser": true,
            "thumbnail_url": "https://play-lh.googleusercontent.com/IPqZNMTj7o1agUs1LkuQ0OJU4Ue_udMnOwxENKdKTaTEL_6GyH1YjS4lfq8hUGCVxGA=w240-h480-rw",
            "thumbnail_url_original": ""
          },
          "sub_37": {
            "id": 37,
            "mode": "video",
            "name": "RTV Noordoost Friesland",
            "sub_name": "",
            "stream_video_url": "http://593aed234297b.streamlock.net/rtvnof/rtvnof/playlist.m3u8",
            "thumbnail_url": "https://www.iptv-updated.com/wp-content/themes/shootingstar-child/uploaded_images/rtv_noordoost_friesland_img_2907.png"
          },
          "sub_38": {
            "id": 38,
            "mode": "video",
            "name": "RTV Noordoost Friesland",
            "sub_name": "",
            "stream_video_url": "http://cdn15.streampartner.nl:1935/rtvnof2/live/playlist.m3u8?fluxustv.m3u8",
            "thumbnail_url": "https://www.iptv-updated.com/wp-content/themes/shootingstar-child/uploaded_images/rtv_noordoost_friesland_img_2907.png"
          },
          "sub_39": {
            "id": 39,
            "mode": "website",
            "name_original": "",
            "name": "Pocket IPTV",
            "sub_name": "IPTV Player (Ad)",
            "website_url": "https://play.google.com/store/apps/details?id=com.pocketiptv",
            "is_system_browser": true,
            "thumbnail_url": "https://play-lh.googleusercontent.com/DviEA28-3k_q7mb1mbF8ZMRdYNRmqEGYMzQ3SJnSdEo5hRkFmxgpr2uKb1z8wnsCpcU=w240-h480-rw",
            "thumbnail_url_original": ""
          },
          "sub_40": {
            "id": 40,
            "mode": "video",
            "name": "RTV Noordoost Friesland",
            "sub_name": "",
            "stream_video_url": "https://593aed234297b.streamlock.net/rtvnof/rtvnof/playlist.m3u8",
            "thumbnail_url": "https://www.iptv-updated.com/wp-content/themes/shootingstar-child/uploaded_images/rtv_noordoost_friesland_img_2907.png"
          },
          "sub_41": {
            "id": 41,
            "mode": "video",
            "name": "RTV Utrecht",
            "sub_name": "",
            "stream_video_url": "https://d18rwjdhpr8dcw.cloudfront.net/live/rtvutrecht/rtvutrecht/index.m3u8",
            "thumbnail_url": "https://www.iptv-updated.com/wp-content/themes/shootingstar-child/uploaded_images/rtv_utrecht_img_2910.png"
          },
          "sub_42": {
            "id": 42,
            "mode": "website",
            "name_original": "",
            "name": "Sexy video calls",
            "sub_name": "Random Video Chat (Ad)",
            "website_url": "https://play.google.com/store/apps/details?id=com.minichat.lyubimiy.videochat",
            "is_system_browser": true,
            "thumbnail_url": "https://play-lh.googleusercontent.com/R93sG4-ovSRJaDNIVx6PaMkfZGATne9MN0S8Ihp7uSgKxaC2qmdXYpYP3GAslVtP5_5f=w240-h480-rw",
            "thumbnail_url_original": ""
          },
          "sub_43": {
            "id": 43,
            "mode": "video",
            "name": "WeertFM",
            "sub_name": "",
            "stream_video_url": "http://ms7.mx-cd.net/tv/109-573495/MLA.smil/playlist.m3u8",
            "thumbnail_url": "https://www.iptv-updated.com/wp-content/themes/shootingstar-child/uploaded_images/weertfm_img_2918.png"
          },
          "sub_44": {
            "id": 44,
            "mode": "video",
            "name": "WeertFM",
            "sub_name": "",
            "stream_video_url": "https://ms7.mx-cd.net/tv/109-573495/MLA.smil/playlist.m3u8",
            "thumbnail_url": "https://www.iptv-updated.com/wp-content/themes/shootingstar-child/uploaded_images/weertfm_img_2918.png"
          }
        }
      }
    }
  }
}
