{
    "com.iptv.live.nangbros": {
        "app_logo": "https://play-lh.googleusercontent.com/33_mPNzvE6WRV6czGRm8EhSrSh0G9wnRQRfMXfcqQLU8j3z4UYu7nrgw5SmaP9UFf0U=s180-rw",
        "rate_app": {
            "package_id": "com.iptv.live.nangbros",
            "is_rate_app": true,
            "rate_app_url": "https://play.google.com/store/apps/details?id=com.iptv.live.nangbros",
            "rate_message": "Please"
        },
        "About_App": {
            "about_title": "Nang",
            "is_override": false,
            "is_about_app": true,
            "about_message": "Your",
            "version_detail": "version : 1.0.0",
            "registration_detail": "Nang"
        },
        "app_lovin": {
            "sdk_key": "l2eHJCxgHTn4tTHns3A55HzXG6ekoyDJigM2SxRmGSN6T1bNmT37tTDW0UxVBVkUepJxXKxFQ8yPMONBdyKO3A",
            "is_open_ads": true,
            "id_unit_open": "e4f41da53b068b30",
            "id_unit_intra": "11ca10e1407e8d0f",
            "is_banner_ads": true,
            "is_native_ads": false,
            "id_unit_banner": "c627779fcaa3cbe3",
            "id_unit_native": "",
            "is_rewared_ads": true,
            "is_unlimited_ads": true,
            "is_interstitial_ads": true,
            "rewared_ads_unit_id": "788e6826808014df",
            "id_unit_native_multiple": {
                "small": "",
                "manual": "b8408ff8ba0188c3",
                "medium": "8e4ac4cda97b3d52"
            }
        },
        "app_title": "YOYO: Live Random Video Chat",
        "extra_url": "https://gitlab.com/bitcodingsolutions/iptv_channels/-/raw/main/X_App/More_Urls/new_data.json",
        "share_app": {
            "share_title": "Share",
            "is_share_app": false,
            "share_message": "Now"
        },
        "ad_setting": {
            "is_full_ads": true,
            "onesignal_id": "07de0128-c4bc-45f0-8baa-6867a262a6b7",
            "ads_loading_text": "Ad is loading...",
            "app_version_code": "3",
            "native_ad_list_interval": 3,
            "global_intra_interval_click": "1",
            "interstitial_ad_time_interval": "0",
            "seconds_require_triger_reward": "30"
        },
        "app_update": {
            "title": "Enjoy",
            "app_icon": "https://play-lh.googleusercontent.com/DFrL4OmwEWMQnRjs9tBcekNn6DYrlehENI0aAD5XphVvenROVKOon7sfLf84YhmyM08=w240-h480-rw",
            "package_id": "com.iptv.live.nangbros",
            "website_url": "https://asliliptv.blogspot.com/",
            "default_message": "Don\u2019t",
            "is_popup_dialog": true,
            "is_update_require": false,
            "updated_version_code": "50"
        },
        "custom_ads": {
            "qureka_link": "https://490.go.qureka.com/intro/question",
            "is_quraka_banner": true,
            "is_quraka_intera": true,
            "is_quraka_native": true,
            "quraka_intra_image": [
                "https://github.com/pragneshpalsanabitcoding/image_quraka/blob/main/360X640_1.png?raw=true",
                "https://github.com/pragneshpalsanabitcoding/image_quraka/blob/main/360X640_2.png?raw=true",
                "https://github.com/pragneshpalsanabitcoding/image_quraka/blob/main/360X640_3.png?raw=true",
                "https://github.com/pragneshpalsanabitcoding/image_quraka/blob/main/360X640_4.png?raw=true",
                "https://github.com/pragneshpalsanabitcoding/image_quraka/blob/main/360X640_5.png?raw=true",
                ""
            ],
            "quraka_banner_image": [
                "https://github.com/pragneshpalsanabitcoding/image_quraka/blob/main/2.jpg?raw=true",
                "https://github.com/pragneshpalsanabitcoding/image_quraka/blob/main/3.jpg?raw=true",
                "https://github.com/pragneshpalsanabitcoding/image_quraka/blob/main/320x50.jpg?raw=true",
                "https://github.com/pragneshpalsanabitcoding/image_quraka/blob/main/4.jpg?raw=true",
                "https://github.com/pragneshpalsanabitcoding/image_quraka/blob/main/5.jpg?raw=true",
                "https://github.com/pragneshpalsanabitcoding/image_quraka/blob/main/6.jpg?raw=true"
            ],
            "quraka_native_image": [
                "https://github.com/pragneshpalsanabitcoding/image_quraka/blob/main/3.jpg?raw=true",
                "https://github.com/pragneshpalsanabitcoding/image_quraka/blob/main/320x50.jpg?raw=true",
                "https://github.com/pragneshpalsanabitcoding/image_quraka/blob/main/4.jpg?raw=true",
                "https://github.com/pragneshpalsanabitcoding/image_quraka/blob/main/6.jpg?raw=true",
                "",
                ""
            ],
            "close_button_to_direct_web": true
        },
        "google_ads": {
            "is_open_ads": false,
            "is_banner_ads": true,
            "is_native_ads": true,
            "is_rewared_ads": false,
            "is_interstitial_ads": false,
            "rewared_ads_unit_id": "788e6826808014df",
            "no_of_click_interstitial": "1",
            "banner_ad_unit_id_android": "/6499/example/banner",
            "native_ads_unit_id_android": "/6499/example/native",
            "app_open_ad_unit_id_android": "/6499/example/app-open",
            "interstitial_ad_unit_id_android": "/6499/example/interstitial",
            "native_video_ads_unit_id_android": "/6499/example/native-video"
        },
        "exit_dialog": {
            "exit_title": "Exit",
            "exit_message": "Do",
            "is_exit_require": true
        },
        "ads_sequence": [
            "google_ads"
        ],
        "error_report": {
            "email_id": "mailto:apptizer.llc@gmail.com",
            "is_error_report_support": true
        },
        "facebook_ads": {
            "is_banner_ads": false,
            "is_native_ads": true,
            "is_rewared_ads": false,
            "is_interstitial_ads": false,
            "rewared_ads_unit_id": "Aslil",
            "no_of_click_interstitial": 1,
            "banner_ad_unit_id_android": "Eighteens",
            "native_ads_unit_id_android": "Jully",
            "interstitial_ad_unit_id_android": "Angels"
        },
        "more_app_url": "https://play.google.com/store/apps/developer?id=Apptizer+LLC",
        "terms_of_use": {
            "terms_of_use": "https://sites.google.com/view/asliliptv-privacypolicy/home",
            "is_terms_of_use": true,
            "is_system_browser": true
        },
        "reward_dialog": {
            "reward_message": "Watch",
            "version_detail": "version",
            "is_reward_require": true
        },
        "more_live_apps": "https://gitlab.com/vs.bitcoding/live_apps/-/raw/main/live_apps.json",
        "privacy_policy": {
            "privacy_policy": "https://sites.google.com/view/asliliptv-privacypolicy/home",
            "is_privacy_policy": true,
            "is_system_browser": true
        },
        "iptv_player_url": "com.pocketiptv",
        "feedback_support": {
            "email_id": "mailto:apptizer.llc@gmail.com",
            "email_message": "Hi,",
            "email_subject": "Feedback",
            "feedback_title": "Feedback",
            "feedback_message": "Hi,",
            "is_feedback_support": true
        }
    }
}