{
  "app_setting": {
    "google_ads": {
      "banner_ad_unit_id_android": "ca-app-pub-3940256099942544/6300978111",
      "is_banner_ads": false
    },
    "custom_ads": {
      "qureka_link": "https://490.go.qureka.com/intro/question",
      "is_quraka_banner": false
    },
    "app_lovin": {
      "id_unit_banner": "IMG_16_9_APP_INSTALL#2312433698835503_2964944860251047",
      "is_banner_ads": false
    },
    "settigs": {
      "player_url": "https://play.google.com/store/apps/details?id=com.pocketiptv",
      "share_url": "https://play.google.com/store/apps/details?id=com.airhorn.sounds.pranks",
      "rate_url": "https://play.google.com/store/apps/details?id=com.airhorn.sounds.pranks",
      "privacy_policy": "https://pages.flycricket.io/https-tenoku-com-a/privacy.html"
    }
  },
  "records": [
    {
      "country_imageUrl": "https://gitlab.com/bitcodingsolutions/iptv_channels/-/raw/main/allflag/India.png",
      "country_name": "India",
      "Links": "https://gitlab.com/bitcodingsolutions/iptv_channels/-/raw/main/Indian%20Channels.json"
    },
    {
      "country_imageUrl": "https://gitlab.com/bitcodingsolutions/iptv_channels/-/raw/main/allflag/USA.Jpeg",
      "country_name": "USA",
      "Links": "https://gitlab.com/bitcodingsolutions/iptv_channels/-/raw/main/USA%20Channels.json"
    },
    {
      "country_imageUrl": "https://gitlab.com/bitcodingsolutions/iptv_channels/-/raw/main/allflag/Chinese.jpg",
      "country_name": "China",
      "Links": "https://gitlab.com/bitcodingsolutions/iptv_channels/-/raw/main/Chinese%20Channels.json"
    },
    {
      "country_imageUrl": "https://gitlab.com/bitcodingsolutions/iptv_channels/-/raw/main/allflag/France.jpeg",
      "country_name": "France",
      "Links": "https://gitlab.com/bitcodingsolutions/iptv_channels/-/raw/main/French%20Channels.json"
    },
    {
      "country_imageUrl": "https://gitlab.com/bitcodingsolutions/iptv_channels/-/raw/main/allflag/English.jpeg",
      "country_name": "Germany",
      "Links": "https://gitlab.com/bitcodingsolutions/iptv_channels/-/raw/main/German%20Channels.json"
    },
    {
      "country_imageUrl": "https://gitlab.com/bitcodingsolutions/iptv_channels/-/raw/main/allflag/russia.jpeg",
      "country_name": "Russia",
      "Links": "https://gitlab.com/bitcodingsolutions/iptv_channels/-/raw/main/Russian%20Channels.json"
    },
    {
      "country_imageUrl": "https://gitlab.com/bitcodingsolutions/iptv_channels/-/raw/main/allflag/Spanish.jpg",
      "country_name": "Spain",
      "Links": "https://gitlab.com/bitcodingsolutions/iptv_channels/-/raw/main/Spanish%20Channels.json"
    },
    {
      "country_imageUrl": "https://gitlab.com/bitcodingsolutions/iptv_channels/-/raw/main/allflag/ukrain.png",
      "country_name": "Ukrain",
      "Links": "https://gitlab.com/bitcodingsolutions/iptv_channels/-/raw/main/Ukraine%20Channels.json"
    },
    {
      "country_imageUrl": "https://gitlab.com/bitcodingsolutions/iptv_channels/-/raw/main/allflag/Arebic.jpeg",
      "country_name": "UAE",
      "Links": "https://gitlab.com/bitcodingsolutions/iptv_channels/-/raw/main/Arabic%20Channels.json"
    },
    {
      "country_imageUrl": "https://gitlab.com/bitcodingsolutions/iptv_channels/-/raw/main/allflag/Brazil.jpg",
      "country_name": "Brazil",
      "Links": "https://gitlab.com/bitcodingsolutions/iptv_channels/-/raw/main/Brasilian%20Channels.json"
    },
    {
      "country_imageUrl": "https://gitlab.com/bitcodingsolutions/iptv_channels/-/raw/main/allflag/English.jpeg",
      "country_name": "England",
      "Links": "https://gitlab.com/bitcodingsolutions/iptv_channels/-/raw/main/English%20Channels.json"
    },
    {
      "country_imageUrl": "https://gitlab.com/bitcodingsolutions/iptv_channels/-/raw/main/allflag/Italy.jpg",
      "country_name": "Italy",
      "Links": "https://gitlab.com/bitcodingsolutions/iptv_channels/-/raw/main/Italian%20Channels.json"
    },
    {
      "country_imageUrl": "https://gitlab.com/bitcodingsolutions/iptv_channels/-/raw/main/allflag/Mexican.jpg",
      "country_name": "Mexico",
      "Links": "https://gitlab.com/bitcodingsolutions/iptv_channels/-/raw/main/Mexican%20Channels.json"
    },
    {
      "country_imageUrl": "https://gitlab.com/bitcodingsolutions/iptv_channels/-/raw/main/allflag/Netherland.jpg",
      "country_name": "Netherland",
      "Links": "https://gitlab.com/bitcodingsolutions/iptv_channels/-/raw/main/Netherlands%20Channels.json"
    },
    {
      "country_imageUrl": "https://gitlab.com/bitcodingsolutions/iptv_channels/-/raw/main/allflag/Portuguese.jpg",
      "country_name": "Portuguese",
      "Links": "https://gitlab.com/bitcodingsolutions/iptv_channels/-/raw/main/Portuguese%20Channels.json"
    },
    {
      "country_imageUrl": "https://gitlab.com/bitcodingsolutions/iptv_channels/-/raw/main/allflag/Turkish.png",
      "country_name": "Turkey",
      "Links": "https://gitlab.com/bitcodingsolutions/iptv_channels/-/raw/main/Turkish%20Channels.json"
    }
  ]
}
